Division,WeightClassKg,Place,Name,Team,BodyweightKg,Best3SquatKg,Best3BenchKg,Best3DeadliftKg,TotalKg,Equipment,Event,Sex
Boys,51.71,1,Nate Mendoza,Kemp,51.71,124.74,56.7,136.08,317.51,Single-ply,SBD,M
Boys,51.71,2,Layton Noey,Normangee,51.44,106.59,61.23,131.54,299.37,Single-ply,SBD,M
Boys,51.71,3,Chandler Prinka,Malakoff,49.49,86.18,58.97,117.93,263.08,Single-ply,SBD,M
Boys,55.79,1,Richard Lowrie,Kemp,54.7,149.69,83.91,142.88,376.48,Single-ply,SBD,M
Boys,55.79,2,Omar Hernandez,Athens,55.52,113.4,86.18,163.29,362.87,Single-ply,SBD,M
Boys,55.79,3,Daniel Vazquez,Athens,53.52,113.4,61.23,111.13,285.76,Single-ply,SBD,M
Boys,55.79,4,Cody Warren,Elkhart,54.25,102.06,65.77,111.13,278.96,Single-ply,SBD,M
Boys,55.79,DQ,Travis Berryhill,Blooming Grove,55.11,111.13,63.5,,,Single-ply,SBD,M
Boys,59.87,1,Chase Kirby,Dawson,58.51,154.22,79.38,158.76,392.36,Single-ply,SBD,M
Boys,59.87,2,Tristian Castillo,Eustace,56.61,142.88,86.18,142.88,371.95,Single-ply,SBD,M
Boys,59.87,3,Brodie Canto,Dawson,57.15,131.54,83.91,149.69,365.14,Single-ply,SBD,M
Boys,59.87,4,Marcos Dominguez,Buffalo,56.88,147.42,72.57,142.88,362.87,Single-ply,SBD,M
Boys,59.87,5,Luis Laborador,Kerens,59.69,120.2,77.11,147.42,344.73,Single-ply,SBD,M
Boys,59.87,6,Jonathan Hernandez,Malakoff,59.65,129.27,70.31,142.88,342.46,Single-ply,SBD,M
Boys,59.87,7,Manuel Vasquez,Athens,55.88,117.93,70.31,113.4,301.64,Single-ply,SBD,M
Boys,59.87,8,Michael Rosales,Rusk,57.15,102.06,65.77,122.47,290.3,Single-ply,SBD,M
Boys,59.87,9,Cody Hearrell,Cayuga,57.61,108.86,65.77,111.13,285.76,Single-ply,SBD,M
Boys,59.87,10,Kyle Kennerk,Cayuga,58.06,97.52,52.16,113.4,263.08,Single-ply,SBD,M
Boys,67.13,1,Leo Rosales,Rusk,66.22,210.92,113.4,204.12,528.44,Single-ply,SBD,M
Boys,67.13,2,Joseph Mahmoud,Athens,64.95,154.22,102.06,167.83,424.11,Single-ply,SBD,M
Boys,67.13,3,William Ferlet,Dawson,61.33,142.88,81.65,163.29,387.82,Single-ply,SBD,M
Boys,67.13,4,Dillon Beshears,Buffalo,64.77,147.42,83.91,147.42,378.75,Single-ply,SBD,M
Boys,67.13,5,Ethan Snow,Malakoff,67.13,151.95,72.57,145.15,369.68,Single-ply,SBD,M
Boys,67.13,6,John Davis,Eustace,60.51,120.2,79.38,142.88,342.46,Single-ply,SBD,M
Boys,67.13,7,Ivan Dominguez,Buffalo,64.86,142.88,65.77,133.81,342.46,Single-ply,SBD,M
Boys,67.13,8,Kamion Tanner,Athens,63.32,117.93,77.11,140.61,335.66,Single-ply,SBD,M
Boys,67.13,9,Manuel Villegas,Blooming Grove,61.42,111.13,86.18,133.81,331.12,Single-ply,SBD,M
Boys,67.13,10,Robert Buckley,Cayuga,64.23,127.01,68.04,136.08,331.12,Single-ply,SBD,M
Boys,67.13,11,Jacob Smith,Palestine Westwood,61.33,124.74,65.77,138.35,328.85,Single-ply,SBD,M
Boys,67.13,12,Jacob Michaels,Athens,63.96,120.2,63.5,136.08,319.78,Single-ply,SBD,M
Boys,67.13,13,Bryce Driver,Rusk,63.05,113.4,65.77,136.08,315.25,Single-ply,SBD,M
Boys,67.13,14,Michael McCarter,Blooming Grove,60.78,106.59,58.97,131.54,297.1,Single-ply,SBD,M
Boys,67.13,15,Jaycob Elliott,Grapeland,62.78,111.13,65.77,120.2,297.1,Single-ply,SBD,M
Boys,67.13,DQ,Joseph Stegall,Malakoff,67.09,131.54,,,,Single-ply,SBD,M
Boys,67.13,DQ,David Dilbeck,Blooming Grove,67.13,156.49,,,,Single-ply,SBD,M
Boys,74.84,1,Justin Griffin,Eustace,72.94,229.06,129.27,213.19,571.53,Single-ply,SBD,M
Boys,74.84,2,Quentin Parks,Eustace,74.75,190.51,113.4,192.78,496.68,Single-ply,SBD,M
Boys,74.84,3,Michael Jones,Elkhart,68.95,183.7,104.33,197.31,485.34,Single-ply,SBD,M
Boys,74.84,4,Nate Bell,Elkhart,74.84,188.24,111.13,183.7,483.08,Single-ply,SBD,M
Boys,74.84,5,Chason Churchman,Palestine Westwood,72.12,204.12,83.91,174.63,462.66,Single-ply,SBD,M
Boys,74.84,6,Damicheal Harvey,Kerens,72.35,167.83,81.65,167.83,417.3,Single-ply,SBD,M
Boys,74.84,7,Ulices Guererro,Buffalo,68.95,156.49,88.45,161.03,405.97,Single-ply,SBD,M
Boys,74.84,8,Joshua Hughes,Eustace,68.04,138.35,106.59,151.95,396.89,Single-ply,SBD,M
Boys,74.84,9,Cody McCaleb,Kerens,73.48,138.35,77.11,147.42,362.87,Single-ply,SBD,M
Boys,74.84,10,Terry Richardson,Eustace,72.03,133.81,65.77,156.49,356.07,Single-ply,SBD,M
Boys,74.84,11,Jason Hernandez,Malakoff Cross Roads,67.86,113.4,83.91,151.95,349.27,Single-ply,SBD,M
Boys,74.84,12,Chris Poole,Cayuga,72.76,108.86,68.04,122.47,299.37,Single-ply,SBD,M
Boys,74.84,13,Kevin Kennerk,Cayuga,73.94,108.86,56.7,111.13,276.69,Single-ply,SBD,M
Boys,74.84,DQ,John Underwood,Cayuga,68.58,,,,,Single-ply,SBD,M
Boys,82.1,1,Alan Quezada,Kemp,80.74,219.99,142.88,208.65,571.53,Single-ply,SBD,M
Boys,82.1,2,Alex Thlang,Elkhart,77.11,219.99,131.54,208.65,560.19,Single-ply,SBD,M
Boys,82.1,3,Aaron Ratliff,Normangee,80.01,208.65,122.47,217.72,548.85,Single-ply,SBD,M
Boys,82.1,4,Hector Dominguez,Buffalo,78.93,219.99,106.59,208.65,535.24,Single-ply,SBD,M
Boys,82.1,5,Jake Hibdon,Kemp,80.92,192.78,140.61,197.31,530.7,Single-ply,SBD,M
Boys,82.1,6,Redhorse Warren,Palestine Westwood,76.84,204.12,113.4,195.04,512.56,Single-ply,SBD,M
Boys,82.1,7,AJ Dixon-Thomas,Malakoff,81.56,206.38,115.67,190.51,512.56,Single-ply,SBD,M
Boys,82.1,8,Orlando Gonzales,Palestine Westwood,80.56,206.38,113.4,185.97,505.76,Single-ply,SBD,M
Boys,82.1,9,Maalik Hall,Athens,81.65,190.51,102.06,199.58,492.15,Single-ply,SBD,M
Boys,82.1,10,Dylan Grim,Malakoff,78.24,179.17,124.74,181.44,485.34,Single-ply,SBD,M
Boys,82.1,11,Boo Jump,Malakoff,78.43,165.56,120.2,188.24,474,Single-ply,SBD,M
Boys,82.1,12,Mikey Agan,Elkhart,82.1,167.83,127.01,174.63,469.47,Single-ply,SBD,M
Boys,82.1,13,Jed Wout,Blooming Grove,81.83,165.56,111.13,170.1,446.79,Single-ply,SBD,M
Boys,82.1,14,Jacob Castro,Malakoff,80.83,151.95,79.38,181.44,412.77,Single-ply,SBD,M
Boys,82.1,15,Travis Connor,Elkhart,77.11,142.88,97.52,154.22,394.63,Single-ply,SBD,M
Boys,82.1,16,Johnathan Hernandez,Malakoff,76.16,136.08,90.72,149.69,376.48,Single-ply,SBD,M
Boys,82.1,17,Zeke Ceron,Buffalo,79.92,145.15,86.18,145.15,376.48,Single-ply,SBD,M
Boys,82.1,18,Dylon Gilpin,Grapeland,80.83,136.08,70.31,142.88,349.27,Single-ply,SBD,M
Boys,82.1,DQ,Caleb Adams,Malakoff,82.1,,,,,Single-ply,SBD,M
Boys,82.1,DQ,Sammy Cervantes,Buffalo,75.21,181.44,,,,Single-ply,SBD,M
Boys,82.1,DQ,Trevor King,Buffalo,74.93,,,,,Single-ply,SBD,M
Boys,82.1,DQ,Isaac Baldvia,Eustace,81.37,136.08,,,,Single-ply,SBD,M
Boys,89.81,1,Keenan Hargest,Eustace,83.28,215.46,122.47,231.33,569.26,Single-ply,SBD,M
Boys,89.81,2,Taylor Little,Kemp,83.01,204.12,117.93,192.78,514.83,Single-ply,SBD,M
Boys,89.81,3,Wally Shrout,Malakoff,88.54,181.44,136.08,181.44,498.95,Single-ply,SBD,M
Boys,89.81,4,Victor Quevedo,Eustace,87.54,172.37,97.52,222.26,492.15,Single-ply,SBD,M
Boys,89.81,5,Larry Coker,Malakoff,88.04,195.04,108.86,181.44,485.34,Single-ply,SBD,M
Boys,89.81,6,Dustin Ackley,Grapeland,88.9,183.7,86.18,204.12,474,Single-ply,SBD,M
Boys,89.81,7,Scott Guldjord,Cayuga,87.54,170.1,117.93,167.83,455.86,Single-ply,SBD,M
Boys,89.81,8,Kasey Cockrell,Kemp,88.18,154.22,106.59,174.63,435.45,Single-ply,SBD,M
Boys,89.81,9,Xavier Robertson,Eustace,88.36,142.88,95.25,161.03,399.16,Single-ply,SBD,M
Boys,89.81,10,Jonathan Rodgers #2,Grapeland,87.63,149.69,92.99,154.22,396.89,Single-ply,SBD,M
Boys,89.81,11,Antonio Miranda,Athens,83.1,158.76,81.65,136.08,376.48,Single-ply,SBD,M
Boys,89.81,12,Garrett Griffin,Eustace,88.54,147.42,79.38,131.54,358.34,Single-ply,SBD,M
Boys,89.81,13,Caedon Farmer,Eustace,88,117.93,86.18,136.08,340.19,Single-ply,SBD,M
Boys,89.81,DQ,Brenden McClintock,Malakoff,89.81,138.35,,,,Single-ply,SBD,M
Boys,99.79,1,Logan Fuller,Athens,90.9,272.16,151.95,226.8,650.91,Single-ply,SBD,M
Boys,99.79,2,Andre Agan,Elkhart,95.25,235.87,163.29,229.06,628.23,Single-ply,SBD,M
Boys,99.79,3,Traylon Swanson,Elkhart,98.61,244.94,149.69,231.33,625.96,Single-ply,SBD,M
Boys,99.79,4,Gavin DeFore,Elkhart,91.63,199.58,145.15,199.58,544.31,Single-ply,SBD,M
Boys,99.79,5,Johnny Bustamante,Blooming Grove,90.26,210.92,117.93,190.51,519.36,Single-ply,SBD,M
Boys,99.79,6,Juan Garcia,Eustace,91.17,188.24,102.06,215.46,505.76,Single-ply,SBD,M
Boys,99.79,7,Justin Disotell,Malakoff Cross Roads,97.43,174.63,117.93,192.78,485.34,Single-ply,SBD,M
Boys,99.79,8,Maurice Calhoun,Palestine Westwood,98.88,174.63,122.47,167.83,464.93,Single-ply,SBD,M
Boys,99.79,9,Pablo Pachuca,Kerens,92.71,174.63,92.99,183.7,451.32,Single-ply,SBD,M
Boys,99.79,10,Brian Sifers,Malakoff Cross Roads,92.53,145.15,124.74,170.1,439.98,Single-ply,SBD,M
Boys,99.79,11,Jason Garcia,Blooming Grove,91.63,163.29,97.52,167.83,428.64,Single-ply,SBD,M
Boys,99.79,12,Clarence Earvin,Athens,92.08,165.56,104.33,158.76,428.64,Single-ply,SBD,M
Boys,99.79,13,Jacob Ickes,Athens,92.99,154.22,92.99,174.63,421.84,Single-ply,SBD,M
Boys,99.79,14,Jace Rogers,Rusk,91.44,142.88,74.84,181.44,399.16,Single-ply,SBD,M
Boys,99.79,15,Lincoln Rogers,Malakoff,94.8,158.76,86.18,142.88,387.82,Single-ply,SBD,M
Boys,99.79,16,Robin Hewitt,Normangee,93.89,142.88,70.31,158.76,371.95,Single-ply,SBD,M
Boys,99.79,17,Giovanni Rivas,Buffalo,92.26,113.4,77.11,106.59,297.1,Single-ply,SBD,M
Boys,109.77,1,Eli Crawford,Kerens,108.5,254.01,124.74,251.74,630.49,Single-ply,SBD,M
Boys,109.77,2,Noah Bush,Athens,102.97,233.6,149.69,226.8,610.08,Single-ply,SBD,M
Boys,109.77,3,David Delgado,Kemp,104.14,235.87,145.15,197.31,578.33,Single-ply,SBD,M
Boys,109.77,4,TJ Jones,Elkhart,102.97,226.8,131.54,213.19,571.53,Single-ply,SBD,M
Boys,109.77,5,Zach Sanders,Malakoff,104.96,233.6,104.33,226.8,564.72,Single-ply,SBD,M
Boys,109.77,6,Payton Lowrie,Malakoff,102.65,226.8,124.74,176.9,528.44,Single-ply,SBD,M
Boys,109.77,7,Jace Harris,Cayuga,105.32,183.7,136.08,188.24,508.02,Single-ply,SBD,M
Boys,109.77,8,Jermaine Lewis,Rusk,104.96,199.58,92.99,197.31,489.88,Single-ply,SBD,M
Boys,109.77,9,Travis Pepin,Rusk,105.05,185.97,108.86,165.56,460.4,Single-ply,SBD,M
Boys,109.77,10,Chris Fletcher,Rusk,108.86,172.37,95.25,192.78,460.4,Single-ply,SBD,M
Boys,109.77,11,Roy Tapley,Dawson,101.6,176.9,92.99,176.9,446.79,Single-ply,SBD,M
Boys,109.77,12,Anthony Banda,Normangee,104.69,156.49,97.52,174.63,428.64,Single-ply,SBD,M
Boys,109.77,13,Timothy Simpson,Buffalo,105.69,127.01,88.45,136.08,351.53,Single-ply,SBD,M
Boys,109.77,14,Michael Hancald,Cayuga,107.05,122.47,92.99,127.01,342.46,Single-ply,SBD,M
Boys,109.77,15,Joe Ingram,Cayuga,107.95,102.06,63.5,145.15,310.71,Single-ply,SBD,M
Boys,109.77,16,Trenton Mcright,Rusk,102.06,106.59,61.23,136.08,303.91,Single-ply,SBD,M
Boys,109.77,DQ,Chad Fancher,Eustace,102.42,111.13,83.91,,,Single-ply,SBD,M
Boys,109.77,DQ,Logan Hall,Kemp,108.86,165.56,,,,Single-ply,SBD,M
Boys,124.74,1,Chad Walker,Athens,124.19,272.16,195.04,231.33,698.53,Single-ply,SBD,M
Boys,124.74,2,Malik Benson,Palestine Westwood,115.85,272.16,136.08,215.46,623.69,Single-ply,SBD,M
Boys,124.74,3,Benito Rivas,Buffalo,120.38,222.26,158.76,219.99,601.01,Single-ply,SBD,M
Boys,124.74,4,Will Dehart,Elkhart,110.68,226.8,140.61,190.51,557.92,Single-ply,SBD,M
Boys,124.74,5,CJ Overton,Malakoff,114.44,204.12,111.13,226.8,542.04,Single-ply,SBD,M
Boys,124.74,6,Marcus Staggs,Eustace,118.84,204.12,99.79,201.85,505.76,Single-ply,SBD,M
Boys,124.74,7,Alfredo Miranda,Athens,111.22,195.04,117.93,174.63,487.61,Single-ply,SBD,M
Boys,124.74,8,Keevan Jackson,Palestine Westwood,121.47,165.56,72.57,142.88,381.02,Single-ply,SBD,M
Boys,124.74,DQ,Matthew Sanders,Malakoff,118.98,151.95,,,,Single-ply,SBD,M
Boys,124.74+,1,Josh West,Athens,139.71,272.16,142.88,226.8,641.83,Single-ply,SBD,M
Boys,124.74+,2,Michael Marshall,Eustace,139.34,238.14,129.27,231.33,598.74,Single-ply,SBD,M
Boys,124.74+,3,Coby Wilbanks,Rusk,142.88,197.31,108.86,181.44,487.61,Single-ply,SBD,M
Boys,124.74+,4,Cole Brumbelow,Kerens,147.15,172.37,113.4,181.44,467.2,Single-ply,SBD,M
Boys,124.74+,DQ,Joseph Lopez,Kemp,157.4,224.53,,,,Single-ply,SBD,M
