Name,Division,WeightClassKg,Best3SquatKg,Bench2Kg,Bench3Kg,Best3BenchKg,Deadlift1Kg,Deadlift2Kg,Deadlift3Kg,Best3DeadliftKg,TotalKg,Event,Equipment,Sex,AgeClass,Age,BodyweightKg,Place
Joe Williams,Novice,52,127.01,,,95.25,,,,147.42,369.68,SBD,Single-ply,M,,14,,1
Ron Hess,Novice,52,147.42,,,74.84,,,,129.27,351.53,SBD,Single-ply,M,,,,2
Scott Segal,Novice,56,161.03,,,97.52,,,,183.7,442.25,SBD,Single-ply,M,,,,1
Mitchell Sirota,Novice,56,124.74,,,106.59,,,,165.56,396.89,SBD,Single-ply,M,,,,2
Tom Russo,Novice,56,90.72,,,86.18,,,,174.63,351.53,SBD,Single-ply,M,,,,3
Steve Soukup,Novice,56,102.06,,,88.45,,,,129.27,319.78,SBD,Single-ply,M,,,,4
David Gant,Novice,60,188.24,,,102.06,,,,195.04,485.34,SBD,Single-ply,M,,,,1
Elwood Minor,Novice,60,149.69,,,117.93,,,,183.7,451.32,SBD,Single-ply,M,,,,2
Rich Bomar,Novice,60,140.61,,,136.08,,,,163.29,439.98,SBD,Single-ply,M,,,,3
Tony Marsicano,Novice,60,124.74,,,83.91,,,,174.63,383.29,SBD,Single-ply,M,,,,4
Ray Perez,Novice,67.5,226.8,,,147.42,,,,199.58,573.79,SBD,Single-ply,M,,,,1
Dave Johnson,Novice,67.5,222.26,,,115.67,,,,213.19,551.11,SBD,Single-ply,M,,,,2
Pedro Valiente,Novice,67.5,170.1,,,127.01,,,,208.65,505.76,SBD,Single-ply,M,,,,3
Kevin Mills,Novice,67.5,188.64,,,113.4,,,,192.78,494.42,SBD,Single-ply,M,,,,4
Andy Morzella,Novice,67.5,172.37,,,113.4,,,,192.78,478.54,SBD,Single-ply,M,,,,5
Eric Powers,Novice,75,249.48,,,158.76,,,,226.8,635.03,SBD,Single-ply,M,,20,,1
Chris Loy,Novice,75,208.65,,,127.01,,,,247.21,582.87,SBD,Single-ply,M,13-19,,,2
Eric Friar,Novice,75,188.24,,,147.42,,,,222.26,557.92,SBD,Single-ply,M,,,,3
Tom Colbert,Novice,75,170.1,,,142.88,,,,226.8,539.77,SBD,Single-ply,M,,,,4
A. Dunnigan,Novice,75,181.44,,,131.54,,,,215.46,528.44,SBD,Single-ply,M,,,,5
Victor Rival,Novice,82.5,238.14,,,145.15,,,,263.08,646.37,SBD,Single-ply,M,,,,1
A. Velazquez,Novice,82.5,247.21,,,154.22,,,,238.14,639.57,SBD,Single-ply,M,,,,2
Nirao Posda,Novice,82.5,204.12,,,138.35,,,,254.01,596.47,SBD,Single-ply,M,,,,3
Jamie Tucker,Novice,82.5,229.06,,,158.76,,,,206.38,594.21,SBD,Single-ply,M,,,,4
Vinson Marlin,Novice,82.5,185.97,,,129.27,,,,258.55,573.79,SBD,Single-ply,M,,,,5
Wayne Conley,Novice,90,240.4,,,213.19,,,,276.69,730.28,SBD,Single-ply,M,,20,,1
Lee Crowther,Novice,90,281.23,,,188.24,,,,254.01,723.48,SBD,Single-ply,M,,,,2
Anthony Acebo,Novice,90,258.55,,,174.63,,,,258.55,691.73,SBD,Single-ply,M,,,,3
Ted Sorenson,Novice,90,249.48,,,179.17,,,,258.55,687.19,SBD,Single-ply,M,,,,4
Dave Beyerland,Novice,90,258.55,,,172.37,,,,256.28,687.19,SBD,Single-ply,M,,,,5
Pat Gentry,Novice,100,303.91,,,201.85,,,,322.05,827.81,SBD,Single-ply,M,,21,,1
John Lehman,Novice,100,258.55,,,208.65,,,,254.01,721.21,SBD,Single-ply,M,,,,2
Bill Johns,Novice,100,281.23,,,165.56,,,,254.01,700.8,SBD,Single-ply,M,,,,3
Prince Matt,Novice,100,240.4,,,192.78,,,,242.67,675.85,SBD,Single-ply,M,,,,4
Jack Dempsey,Novice,100,240.4,,,172.37,,,,249.48,662.24,SBD,Single-ply,M,,,,5
Todd Peters,Novice,110,276.69,,,167.83,,,,260.82,705.34,SBD,Single-ply,M,,,,1
Louis Baltz,Novice,110,249.48,,,163.29,,,,249.48,662.24,SBD,Single-ply,M,,,,2
Dan Mesa,Novice,110,249.48,,,158.76,,,,244.94,653.17,SBD,Single-ply,M,,,,3
John Cuje,Novice,110,233.6,,,158.76,,,,240.4,632.76,SBD,Single-ply,M,,,,4
Wayne Giddens,Novice,110,249.48,,,124.74,,,,226.8,601.01,SBD,Single-ply,M,,,,5
Craig Robery,Novice,125,272.16,,,161.03,,,,292.57,725.75,SBD,Single-ply,M,,,,1
Steve Johnson #6,Novice,125,278.96,,,156.49,,,,283.5,718.94,SBD,Single-ply,M,,,,2
Richard Deph,Novice,125,222.26,,,154.22,,,,274.42,650.91,SBD,Single-ply,M,,,,3
D. Velazquez,Novice,125,199.58,,,156.49,,,,226.8,582.87,SBD,Single-ply,M,,,,4
Larry Seigel,Novice,125,167.83,,,122.47,,,,222.26,512.56,SBD,Single-ply,M,,,,5
Mike Boyer,Open,56,170.1,,,102.06,,,,181.44,453.59,SBD,Single-ply,M,,,,1
Ramon Miguel,Open,56,61.23,,,61.23,,,,61.23,183.7,SBD,Single-ply,M,,,,2
Ernesto Milian,Open,60,217.72,,,131.54,,,,256.28,605.55,SBD,Single-ply,M,,,,1
Tony Conyers,Open,67.5,258.55,,,172.37,,,,249.48,680.39,SBD,Single-ply,M,,,66.68,1
Tom Thomas,Open,67.5,254.01,,,142.88,,,,213.19,610.08,SBD,Single-ply,M,,,,2
Sherman Johnson,Open,67.5,215.46,,,138.35,,,,247.21,601.01,SBD,Single-ply,M,,,,3
Larry Scarinci,Open,75,233.6,,,161.03,,,,240.4,635.03,SBD,Single-ply,M,,,,1
Roy Pistone,Open,75,249.48,,,129.27,,,,249.48,628.23,SBD,Single-ply,M,,,,2
Kelley Collier,Open,75,224.53,,,138.35,,,,251.74,614.62,SBD,Single-ply,M,,,,3
Dennis Farr,Open,75,210.92,,,156.49,,,,231.33,598.74,SBD,Single-ply,M,,,,4
Ethan Balno,Open,75,219.99,,,147.42,,,,226.8,594.21,SBD,Single-ply,M,,,,5
Ken Wesley,Open,82.5,244.94,,,185.97,,,,274.42,705.34,SBD,Single-ply,M,,,,1
Moody Chisholm,Open,82.5,249.48,,,170.1,,,,263.08,682.66,SBD,Single-ply,M,,,,2
Jim Gallardo,Open,82.5,235.87,,,188.24,,,,251.74,675.85,SBD,Single-ply,M,,,,3
Virgil Diaz,Open,82.5,263.08,,,161.03,,,,244.94,669.05,SBD,Single-ply,M,,24,,4
Garry Lawson,Open,82.5,258.55,,,158.76,,,,247.21,664.51,SBD,Single-ply,M,,,,5
Dom Castellano,Open,90,328.85,,,190.51,,,,335.66,855.02,SBD,Single-ply,M,,,,1
Rick Weil,Open,90,299.37,244.94,-251.74,244.94,,,,281.23,825.54,SBD,Single-ply,M,,,82.89,2
Paul Mustakas,Open,90,312.98,,,195.04,317.51,-335.66,-335.66,317.51,825.54,SBD,Single-ply,M,,,,3
Luis Soto,Open,90,308.44,,,179.17,,,,297.1,784.71,SBD,Single-ply,M,,,,4
Tom Higgins,Open,90,278.96,,,161.03,,,,310.71,750.7,SBD,Single-ply,M,,,,5
Skip Falcone,Open,90,281.23,,,174.63,,,,294.84,750.7,SBD,Single-ply,M,,,,6
Joe Ladnier,Open,100,362.87,,,240.4,,,,351.53,954.81,SBD,Single-ply,M,,,,1
Tim Chrosniak,Open,100,331.12,,,176.9,,,,331.12,839.15,SBD,Single-ply,M,,,,2
Ed Williamson,Open,100,322.05,,,199.58,,,,306.17,827.81,SBD,Single-ply,M,,,,3
Mike Williams,Open,100,263.08,,,204.12,,,,272.16,739.36,SBD,Single-ply,M,,,,4
Dave Findora,Open,100,263.08,,,195.04,,,,254.01,712.14,SBD,Single-ply,M,,,,5
Robert Chrosniak,Open,110,401.43,,,219.99,,,,331.12,952.54,SBD,Single-ply,M,,,,1
Dan Macri,Open,110,306.17,,,201.85,,,,278.96,786.98,SBD,Single-ply,M,,,,2
John Sykes,Open,110,283.5,,,192.78,,,,306.17,782.45,SBD,Single-ply,M,,,,3
Nick Reeb,Open,125,281.23,,,226.8,,,,285.76,793.79,SBD,Single-ply,M,,,,1
Ron Vitkun,Open,125,290.3,,,208.65,,,,281.23,780.18,SBD,Single-ply,M,,,,2
Rick Chastang,Open,125+,24.95,,,65.77,,,,299.37,390.09,SBD,Raw,M,,,,1
Jerry Smith,Open,125+,344.73,,,219.99,,,,317.52,882.24,SBD,Single-ply,M,40-999,,,1
Rick Failla,Open,125+,294.84,,,213.19,,,,294.84,802.86,SBD,Single-ply,M,,,,2
Rusty Irby,Open,125+,115.67,251.74,-258.55,251.74,,,,115.67,483.08,SBD,Single-ply,M,,,,3
