Division,WeightClassKg,Place,Name,Team,BodyweightKg,Best3SquatKg,Best3BenchKg,Best3DeadliftKg,TotalKg,Equipment,Event,Sex
Boys,51.71,1,Zach Gonzales,Linden-Kildare,50.8,120.2,70.31,113.4,303.91,Single-ply,SBD,M
Boys,51.71,2,Colton Martin,Elysian Fields,51.71,86.18,47.63,113.4,247.21,Single-ply,SBD,M
Boys,51.71,3,David Blackwell,Nacogdoches,50.58,106.59,36.29,97.52,240.4,Single-ply,SBD,M
Boys,51.71,4,Mitchell Roberts,Texarkana Pleasant Grove,49.9,86.18,52.16,97.52,235.87,Single-ply,SBD,M
Boys,51.71,5,Taylor Keele,Timpson,50.35,102.06,65.77,,167.83,Single-ply,SB,M
Boys,55.79,6,Charley Fernandez,Mount Pleasant,51.94,106.59,,,106.59,Single-ply,S,M
Boys,55.79,1,Sam Foley,Waskom,53.98,165.56,88.45,158.76,412.77,Single-ply,SBD,M
Boys,59.87,2,Kentrun Pemberton,Texarkana Liberty-Eylau,56.02,145.15,83.91,147.42,376.48,Single-ply,SBD,M
Boys,55.79,3,Scott Byrd,Longview,54.43,136.08,77.11,147.42,360.61,Single-ply,SBD,M
Boys,55.79,4,Joaquin Johnson,Elysian Fields,53.75,129.27,68.04,145.15,342.46,Single-ply,SBD,M
Boys,55.79,5,Tk Wilbert,Marshall,53.52,113.4,65.77,138.35,317.51,Single-ply,SBD,M
Boys,55.79,6,Tj Pratt,Texarkana Liberty-Eylau,53.52,120.2,65.77,120.2,306.17,Single-ply,SBD,M
Boys,55.79,7,Brandon Nettles,Texarkana Pleasant Grove,53.52,108.86,79.38,104.33,292.57,Single-ply,SBD,M
Boys,59.87,1,Tj Howard,Texarkana Liberty-Eylau,58.74,167.83,92.99,170.1,430.91,Single-ply,SBD,M
Boys,59.87,2,Edgar Simmons,Marshall,58.06,151.95,92.99,158.76,403.7,Single-ply,SBD,M
Boys,67.13,3,Roderick Howard,Texarkana Liberty-Eylau,60.1,147.42,88.45,161.03,396.89,Single-ply,SBD,M
Boys,59.87,4,Justin Spurlin,Waskom,59.87,129.27,70.31,158.76,358.34,Single-ply,SBD,M
Boys,59.87,5,Marcos Jimenez,Waskom,56.25,129.27,68.04,136.08,333.39,Single-ply,SBD,M
Boys,59.87,6,Javonte Parker,Marshall,59.87,124.74,54.43,140.61,319.78,Single-ply,SBD,M
Boys,59.87,7,Eduardo Zavala,Mount Pleasant,59.42,102.06,70.31,142.88,315.25,Single-ply,SBD,M
Boys,59.87,8,Aj Medford,Marshall,57.38,104.33,54.43,136.08,294.84,Single-ply,SBD,M
Boys,59.87,DQ,Tabari Hill,Texarkana Liberty-Eylau,59.65,115.67,70.31,136.08,,Single-ply,SBD,M
Boys,67.13,DQ,Deoncha Minifield,Texarkana Liberty-Eylau,60.1,138.35,86.18,147.42,,Single-ply,SBD,M
Boys,74.84,1,Roy Butler,Texarkana Liberty-Eylau,67.36,217.72,149.69,199.58,566.99,Single-ply,SBD,M
Boys,67.13,2,De'Shun Brewer,Texarkana Liberty-Eylau,65.54,190.51,106.59,204.12,501.22,Single-ply,SBD,M
Boys,67.13,3,Jalen Johnson,Longview,66.9,183.7,95.25,183.7,462.66,Single-ply,SBD,M
Boys,67.13,4,Dominique Ford,Marshall,64.64,170.1,88.45,181.44,439.98,Single-ply,SBD,M
Boys,67.13,5,JC Garcia,Waskom,66.68,174.63,81.65,170.1,426.38,Single-ply,SBD,M
Boys,67.13,6,Brad Wagner,Linden-Kildare,65.32,133.81,79.38,142.88,356.07,Single-ply,SBD,M
Boys,67.13,7,Alex Pearson,Longview,60.33,129.27,77.11,142.88,349.27,Single-ply,SBD,M
Boys,67.13,8,Dakota Faulk,Beckville,63.5,106.59,68.04,149.69,324.32,Single-ply,SBD,M
Boys,67.13,9,Teven Rudd,Marshall,63.5,92.99,47.63,142.88,283.5,Single-ply,SBD,M
Boys,67.13,10,Tyler Worrell,Texarkana Texas,61.69,97.52,65.77,113.4,276.69,Single-ply,SBD,M
Boys,67.13,11,Trevor Cobb,Texarkana Pleasant Grove,64.64,138.35,,,138.35,Single-ply,S,M
Boys,74.84,12,Jonathan Angele,Elysian Fields,67.36,124.74,,,124.74,Single-ply,S,M
Boys,74.84,DQ,Dayon Cotton,Longview,67.36,142.88,68.04,142.88,,Single-ply,SBD,M
Boys,67.13,DQ,Martreveus Jackson,Texarkana Liberty-Eylau,67.13,124.74,79.38,151.95,,Single-ply,SBD,M
Boys,67.13,DQ,Tajee Johnson,Texarkana Liberty-Eylau,63.96,136.08,88.45,165.56,,Single-ply,SBD,M
Boys,74.84,1,Chris Ford,Marshall,74.39,235.87,149.69,226.8,612.35,Single-ply,SBD,M
Boys,82.1,2,Jason Haley,Texarkana Liberty-Eylau,75.07,217.72,99.79,199.58,517.1,Single-ply,SBD,M
Boys,74.84,3,Kannon Carter,Mount Pleasant,72.12,185.97,127.01,195.04,508.02,Single-ply,SBD,M
Boys,74.84,4,Jacovin Coates,Marshall,71.21,192.78,90.72,204.12,487.61,Single-ply,SBD,M
Boys,74.84,5,John Shaw,Timpson,73.03,154.22,113.4,174.63,442.25,Single-ply,SBD,M
Boys,74.84,6,Bruce Wood,Elysian Fields,73.94,154.22,99.79,174.63,428.64,Single-ply,SBD,M
Boys,74.84,7,Khris Mohr,Timpson,74.84,129.27,106.59,179.17,415.04,Single-ply,SBD,M
Boys,74.84,8,Cody Brantley,Mount Pleasant,70.76,156.49,92.99,161.03,410.5,Single-ply,SBD,M
Boys,74.84,9,Kensha Talley,Marshall,69.85,136.08,88.45,174.63,399.16,Single-ply,SBD,M
Boys,74.84,10,Travis Horn,Linden-Kildare,74.16,136.08,86.18,140.61,362.87,Single-ply,SBD,M
Boys,74.84,11,Jacob Hanson,Marshall,69.4,131.54,83.91,127.01,342.46,Single-ply,SBD,M
Boys,74.84,12,Eddie Blacknell,Marshall,73.26,113.4,86.18,129.27,328.85,Single-ply,SBD,M
Boys,74.84,13,Harold Carter,Texarkana Pleasant Grove,67.59,154.22,,,154.22,Single-ply,S,M
Boys,74.84,DQ,Tristan Green,Timpson,72.12,145.15,83.91,140.61,,Single-ply,SBD,M
Boys,74.84,DQ,Cole Pearson,Texarkana Pleasant Grove,71.67,124.74,63.5,149.69,,Single-ply,SBD,M
Boys,74.84,DQ,Tyler Green,Timpson,68.72,129.27,81.65,142.88,,Single-ply,SBD,M
Boys,74.84,DQ,Tiawa Braxton,Texarkana Liberty-Eylau,69.4,102.06,70.31,133.81,,Single-ply,SBD,M
Boys,74.84,DQ,Lavonta Johnson,Texarkana Liberty-Eylau,68.49,124.74,92.99,147.42,,Single-ply,SBD,M
Boys,74.84,DQ,Hunter Bollier,Texarkana Liberty-Eylau,69.85,147.42,88.45,124.74,,Single-ply,SBD,M
Boys,74.84,DQ,Cameron Simmons,Texarkana Liberty-Eylau,69.85,124.74,,,,Single-ply,S,M
Boys,74.84,DQ,Antonio Benton,Texarkana Liberty-Eylau,71.21,102.06,61.23,136.08,,Single-ply,SBD,M
Boys,74.84,DQ,Dmacio Cross,Texarkana Liberty-Eylau,74.39,,,,,Single-ply,S,M
Boys,82.1,1,Dakota Anthony,Longview,75.75,215.46,115.67,226.8,557.92,Single-ply,SBD,M
Boys,82.1,2,Trent Tucker,Texarkana Liberty-Eylau,79.38,204.12,133.81,208.65,546.58,Single-ply,SBD,M
Boys,82.1,3,Kevin Jones,Beckville,76.43,185.97,117.93,181.44,485.34,Single-ply,SBD,M
Boys,82.1,4,Quebec Polk,Marshall,75.75,185.97,104.33,190.51,480.81,Single-ply,SBD,M
Boys,82.1,5,Lance Richard,Timpson,77.79,181.44,115.67,181.44,478.54,Single-ply,SBD,M
Boys,82.1,6,Danny Galvan,Waskom,81.87,170.1,92.99,165.56,428.64,Single-ply,SBD,M
Boys,82.1,7,Brandon Thompson,Mount Pleasant,82.1,170.1,95.25,154.22,419.57,Single-ply,SBD,M
Boys,82.1,8,Derrick McCullen,Longview,77.56,156.49,92.99,161.03,410.5,Single-ply,SBD,M
Boys,82.1,9,Tanner Norman,Elysian Fields,76.48,138.35,88.45,165.56,392.36,Single-ply,SBD,M
Boys,82.1,10,Paulo Cagol,Marshall,75.3,138.35,88.45,161.03,387.82,Single-ply,SBD,M
Boys,82.1,11,Colby Simmons,Elysian Fields,77.11,170.1,,,170.1,Single-ply,S,M
Boys,82.1,11,John Coe,Linden-Kildare,82.1,170.1,102.06,158.76,430.91,Single-ply,SBD,M
Boys,82.1,DQ,Mitchell Leonard,Marshall,75.75,92.99,,,,Single-ply,SBD,M
Boys,82.1,DQ,Jorge Martinez,Mount Pleasant,81.65,142.88,83.91,147.42,,Single-ply,SBD,M
Boys,82.1,DQ,Darquan Ware,Texarkana Liberty-Eylau,77.11,161.03,88.45,161.03,,Single-ply,SBD,M
Boys,82.1,DQ,Matthew Sellers,Texarkana Liberty-Eylau,80.74,181.44,88.45,188.24,,Single-ply,SBD,M
Boys,89.81,1,Dekota Newson,Marshall,85.28,247.21,142.88,256.28,646.37,Single-ply,SBD,M
Boys,89.81,2,Travis Turner,Texarkana Texas,82.55,254.01,120.2,256.28,630.49,Single-ply,SBD,M
Boys,89.81,3,Hollis Webster,Texarkana Liberty-Eylau,85.5,222.26,145.15,231.33,598.74,Single-ply,SBD,M
Boys,89.81,4,Dacoreyan Blankenship,Longview,83.01,215.46,115.67,226.8,557.92,Single-ply,SBD,M
Boys,89.81,5,Antwan Jones,Mount Pleasant,83.46,176.9,108.86,199.58,485.34,Single-ply,SBD,M
Boys,89.81,6,Tyler Wellborn,Texarkana Pleasant Grove,89.81,181.44,117.93,181.44,480.81,Single-ply,SBD,M
Boys,89.81,7,Alberto Balderas,Marshall,86.18,181.44,102.06,176.9,460.4,Single-ply,SBD,M
Boys,89.81,8,Leo Meyers,Linden-Kildare,83.46,170.1,102.06,183.7,455.86,Single-ply,SBD,M
Boys,89.81,9,Adam Owens,Texarkana Pleasant Grove,83.46,172.37,99.79,183.7,455.86,Single-ply,SBD,M
Boys,89.81,10,Jason Spurlin,Waskom,87.77,163.29,95.25,181.44,439.98,Single-ply,SBD,M
Boys,89.81,12,Colton Watson,Texarkana Pleasant Grove,83.23,151.95,95.25,181.44,428.64,Single-ply,SBD,M
Boys,89.81,13,Kenderson Cooks,Marshall,88,163.29,90.72,174.63,428.64,Single-ply,SBD,M
Boys,89.81,14,Brandt Moore,Marshall,86.18,147.42,72.57,181.44,401.43,Single-ply,SBD,M
Boys,89.81,15,Jackson McCarty,Elysian Fields,87.09,115.67,83.91,165.56,365.14,Single-ply,SBD,M
Boys,89.81,16,Cory Walls,Marshall,89.81,181.44,,,181.44,Single-ply,S,M
Boys,89.81,DQ,Keenan Horton,Marshall,82.55,115.67,,,,Single-ply,S,M
Boys,89.81,DQ,Kenderrick Holmes,Texarkana Liberty-Eylau,83.46,188.24,102.06,183.7,,Single-ply,SBD,M
Boys,89.81,DQ,Ken Garza,Texarkana Liberty-Eylau,85.5,149.69,86.18,163.29,,Single-ply,SBD,M
Boys,99.79,1,Terry Jones,Beckville,93.67,238.14,115.67,204.12,557.92,Single-ply,SBD,M
Boys,99.79,2,Cory Dawson,Marshall,97.98,199.58,136.08,215.46,551.11,Single-ply,SBD,M
Boys,99.79,3,Jamie Reed,Texarkana Texas,96.62,204.12,127.01,208.65,539.77,Single-ply,SBD,M
Boys,99.79,4,Andrew Chirwa,Texarkana Texas,92.08,204.12,117.93,192.78,514.83,Single-ply,SBD,M
Boys,99.79,5,Christian Williams #5,Longview,96.16,197.31,102.06,206.38,505.76,Single-ply,SBD,M
Boys,99.79,6,Alex Barajas,Mount Pleasant,99.56,183.7,115.67,183.7,483.08,Single-ply,SBD,M
Boys,99.79,7,John Dawson,Linden-Kildare,99.56,165.56,79.38,174.63,419.57,Single-ply,SBD,M
Boys,99.79,8,Nico Smith,Texarkana Pleasant Grove,97.07,136.08,106.59,167.83,410.5,Single-ply,SBD,M
Boys,99.79,9,LaVantae Hicks,Longview,94.35,170.1,77.11,156.49,403.7,Single-ply,SBD,M
Boys,99.79,10,Caleb Gentry,Waskom,91.4,158.76,90.72,147.42,396.89,Single-ply,SBD,M
Boys,99.79,11,John Patterson,Marshall,96.16,136.08,83.91,142.88,362.87,Single-ply,SBD,M
Boys,99.79,12,Cody Forbes,Marshall,98.2,147.42,90.72,102.06,340.19,Single-ply,SBD,M
Boys,99.79,DQ,Josh Talley,Marshall,92.08,,,,,Single-ply,SBD,M
Boys,99.79,DQ,T'Nheous Smith,Mount Pleasant,94.8,151.95,102.06,158.76,,Single-ply,SBD,M
Boys,99.79,DQ,Kenny Andrews,Longview,96.16,149.69,120.2,142.88,,Single-ply,SBD,M
Boys,99.79,DQ,Zacchaeus Price,Texarkana Liberty-Eylau,96.84,197.31,120.2,167.83,,Single-ply,SBD,M
Boys,99.79,DQ,Landon Callahan,Texarkana Liberty-Eylau,98.43,192.78,104.33,142.88,,Single-ply,SBD,M
Boys,99.79,DQ,Zach Ford,Texarkana Liberty-Eylau,91.85,174.63,99.79,204.12,,Single-ply,SBD,M
Boys,99.79,DQ,William Wayne,Texarkana Liberty-Eylau,93.44,188.24,113.4,201.85,,Single-ply,SBD,M
Boys,99.79,DQ,Randy Bryant,Texarkana Liberty-Eylau,92.99,124.74,88.45,149.69,,Single-ply,SBD,M
Boys,109.77,1,Thomas Reynolds,Marshall,103.87,224.53,129.27,213.19,566.99,Single-ply,SBD,M
Boys,109.77,2,Deonte McKinney,Marshall,103.42,233.6,99.79,224.53,557.92,Single-ply,SBD,M
Boys,124.74,3,Warren Lemons,Longview,110,215.46,117.93,215.46,548.85,Single-ply,SBD,M
Boys,109.77,4,Daniel Hicks,Waskom,100.92,208.65,129.27,206.38,544.31,Single-ply,SBD,M
Boys,109.77,5,Trency Clough,Marshall,105.23,204.12,127.01,208.65,539.77,Single-ply,SBD,M
Boys,109.77,6,Brandon Williams,Marshall,109.32,226.8,106.59,181.44,514.83,Single-ply,SBD,M
Boys,109.77,7,Javier Sanchez,Waskom,104.1,172.37,99.79,188.24,460.4,Single-ply,SBD,M
Boys,109.77,8,Katrail Flanagan,Marshall,106.14,124.74,88.45,111.13,324.32,Single-ply,SBD,M
Boys,109.77,9,Tywon Walker,Mount Pleasant,108.86,174.63,,,174.63,Single-ply,S,M
Boys,109.77,10,Cotlon Finchum,Timpson,107.27,154.22,,,154.22,Single-ply,S,M
Boys,109.77,DQ,Devon Reynolds,Texarkana Liberty-Eylau,102.06,142.88,92.99,127.01,,Single-ply,SBD,M
Boys,109.77,DQ,Fred Holifield,Texarkana Liberty-Eylau,108.41,170.1,99.79,142.88,,Single-ply,SBD,M
Boys,109.77,DQ,Marocco Arnold,Texarkana Liberty-Eylau,102.51,204.12,97.52,208.65,,Single-ply,SBD,M
Boys,124.74,1,Chris Jones,Texarkana Texas,118.16,240.4,147.42,229.06,616.89,Single-ply,SBD,M
Boys,124.74,2,Donavon Webb,Longview,114.31,260.82,120.2,226.8,607.81,Single-ply,SBD,M
Boys,124.74,3,Chris Paul,Texarkana Liberty-Eylau,114.31,226.8,136.08,192.78,555.65,Single-ply,SBD,M
Boys,124.74,4,Victor Angeles,Beckville,119.07,217.72,136.08,188.24,542.04,Single-ply,SBD,M
Boys,124.74,4,Dusty Donihoo,Mount Pleasant,124.74,192.78,122.47,181.44,496.68,Single-ply,SBD,M
Boys,124.74,5,Maceo Walker,Texarkana Texas,117.03,215.46,115.67,208.65,539.77,Single-ply,SBD,M
Boys,124.74,6,Justin Lewis,Texarkana Texas,115.21,215.46,131.54,181.44,528.44,Single-ply,SBD,M
Boys,124.74,7,David Smith,Marshall,116.8,217.72,120.2,188.24,526.17,Single-ply,SBD,M
Boys,124.74,8,Shane Armstrong,Beckville,120.66,158.76,136.08,181.44,476.27,Single-ply,SBD,M
Boys,124.74,9,Blake Jordan,Texarkana Pleasant Grove,119.29,176.9,115.67,172.37,464.93,Single-ply,SBD,M
Boys,124.74,10,Jordon Labrie,Texarkana Pleasant Grove,114.31,163.29,102.06,163.29,428.64,Single-ply,SBD,M
Boys,124.74,11,Addison Toler,Texarkana Pleasant Grove,112.49,149.69,106.59,167.83,424.11,Single-ply,SBD,M
Boys,124.74,12,Ruston Bush,Timpson,117.71,161.03,95.25,165.56,421.84,Single-ply,SBD,M
Boys,124.74,13,Oscar Soto,Mount Pleasant,121.56,174.63,,,174.63,Single-ply,S,M
Boys,124.74,DQ,Sergio Ramirez,Mount Pleasant,124.28,176.9,127.01,181.44,,Single-ply,SBD,M
Boys,124.74,DQ,Hayden Hart,Texarkana Liberty-Eylau,114.76,183.7,111.13,165.56,,Single-ply,SBD,M
Boys,124.74+,1,Joshua Byrd,Marshall,131.54,260.82,131.54,226.8,619.15,Single-ply,SBD,M
Boys,124.74+,2,Marquon Edmond,Texarkana Liberty-Eylau,140.61,238.14,136.08,199.58,573.79,Single-ply,SBD,M
Boys,124.74+,3,Jeremy Wigginton,Elysian Fields,128.37,192.78,131.54,185.97,510.29,Single-ply,SBD,M
Boys,124.74+,5,Wesleey Prince,Waskom,135.62,167.83,99.79,167.83,435.45,Single-ply,SBD,M
Boys,124.74+,6,Christian Agundiz,Waskom,136.98,161.03,99.79,145.15,405.97,Single-ply,SBD,M
Boys,124.74+,7,Willie McGill,Mount Pleasant,138.35,204.12,,,204.12,Single-ply,S,M
Boys,124.74+,8,Brandon Barber,Elysian Fields,141.52,174.63,,,174.63,Single-ply,S,M
Boys,124.74+,DQ,Quinton Watson,Texarkana Liberty-Eylau,174.63,249.48,138.35,158.76,,Single-ply,SBD,M
