Place,Name,Division,Equipment,Sex,BirthDate,WeightClassKg,BodyweightKg,Best3DeadliftKg,TotalKg,Event
1,Helena Schmidt,Juniors,Single-ply,F,1997-07-14,52,50.4,120,120,D
1,Miriam Dahlke,Youth,Single-ply,F,2000-01-12,57,55.1,85,85,D
1,Jitka Mormanova,Open,Single-ply,F,1982-01-27,57,56.2,117.5,117.5,D
1,Silvia Stütz,Open,Single-ply,F,1978-01-13,63,62.5,180,180,D
1,Anke Köster,Masters 2,Single-ply,F,1968-12-27,72,66.3,155,155,D
1,Sandra Beyer,Open,Single-ply,F,1988-09-01,72,72,172.5,172.5,D
1,Said Salim Sadaat,Youth,Single-ply,M,2002-11-11,59,59,162.5,162.5,D
1,Ludwig Werner,Masters 4,Single-ply,M,1938-03-18,66,61.7,140,140,D
1,Marius Milla,Open,Single-ply,M,1993-06-16,83,76.2,280,280,D
1,Marko Staubach,Masters 1,Single-ply,M,1971-01-19,83,79.6,255,255,D
3,Fabiano Luciano Capraro,Open,Single-ply,M,1991-05-03,83,80.7,210,210,D
2,Sascha Knopf,Open,Single-ply,M,1983-05-04,83,81.3,230,230,D
3,Theodor Diesner-Mayer,Open,Single-ply,M,1994-02-17,93,84.2,185,185,D
2,Heiko Krüger,Masters 1,Single-ply,M,1971-03-09,93,84.2,200,200,D
2,Bohort Leonel Horesnyi,Juniors,Single-ply,M,1999-12-28,93,85.9,205,205,D
1,Roberto Adami,Masters 1,Single-ply,M,1970-02-10,93,90.2,220,220,D
1,Kazimierz Michae Forys,Masters 4,Single-ply,M,1945-08-03,93,91.2,230,230,D
1,Nico Kästner,Open,Single-ply,M,1990-11-29,93,91.9,260,260,D
1,Philipp Karbstein,Juniors,Single-ply,M,1996-07-28,93,92.2,280,280,D
2,Artur Rischo,Open,Single-ply,M,1992-10-05,93,92.3,230,230,D
2,Andreas Stelter,Masters 4,Single-ply,M,1947-03-25,93,93,145,145,D
2,Marc Heinrich,Open,Single-ply,M,1983-03-19,105,97,252.5,252.5,D
1,Kai Manfred Eckert,Juniors,Single-ply,M,1995-12-30,105,98.5,270,270,D
1,Mike Schollbach,Open,Single-ply,M,1981-09-06,105,99.7,315,315,D
2,Volker Bauer,Juniors,Single-ply,M,1997-02-27,105,100.3,250,250,D
3,Markus Stolorz,Open,Single-ply,M,1992-05-02,105,104.5,245,245,D
