Name,Sex,BodyweightKg,WeightClassKg,BirthYear,Squat1Kg,Squat2Kg,Squat3Kg,Best3SquatKg,Bench1Kg,Bench2Kg,Bench3Kg,Best3BenchKg,Deadlift1Kg,Deadlift2Kg,Deadlift3Kg,Best3DeadliftKg,TotalKg,Place,Event,Equipment,Division
Anja Schreiner,F,47.2,52,1993,-145,150,,150,85,90,95,95,115,125,130,130,375,3,SBD,Single-ply,Open
Karolina Moszynska,F,57.8,63,1996,165,-175,175,175,-112.5,112.5,-117.5,112.5,140,150,-165,150,437.5,2,SBD,Single-ply,Open
Isabell Materne,F,62.2,63,1985,-155,-162.5,167.5,167.5,-115,115,-122.5,115,140,147.5,155,155,437.5,4,SBD,Single-ply,Open
Elke Erbs,F,68.7,72,1989,-117.5,120,127.5,127.5,72.5,80,-85,80,140,150,160,160,367.5,14,SBD,Single-ply,Open
Sofia Walter,F,70.85,72,1996,190,200,210,210,87.5,95,-100,95,130,145,162.5,162.5,467.5,3,SBD,Single-ply,Open
Friederike Hoppe,F,72,72,1984,147.5,155,-160,155,95,100,-105,100,170,180,-187.5,180,435,5,SBD,Single-ply,Open
Caroline Hiss,F,72,72,1999,155,165,170,170,60,95,102.5,102.5,130,142.5,152.5,152.5,425,9,SBD,Single-ply,Open
Marc Polster,M,68.75,74,1996,235,250,255,255,140,-147.5,-150,140,215,230,245,245,640,3,SBD,Single-ply,Open
René Borchert,M,70.5,74,1998,180,190,200,200,122.5,132.5,137.5,137.5,160,170,-177.5,170,507.5,10,SBD,Single-ply,Open
Christian Henneberger,M,72.55,74,1973,-215,225,232.5,232.5,135,140,-150,140,220,232.5,-237.5,232.5,605,13,SBD,Single-ply,Open
Sebastian Kienast,M,76.9,83,1981,225,235,245,245,117.5,122.5,127.5,127.5,215,227.5,237.5,237.5,610,9,SBD,Single-ply,Open
Jonas Diefenbach,M,77,83,1998,-250,-250,-250,,145,-152.5,-152.5,145,217.5,-232.5,-232.5,217.5,,DQ,SBD,Single-ply,Open
Armin Seynstahl,M,77.3,83,1991,210,230,235,235,-145,145,-147.5,145,235,250,257.5,257.5,637.5,12,SBD,Single-ply,Open
Marco Reis,M,78.55,83,1990,187.5,197.5,205,205,145,150,-152.5,150,192.5,200,-205,200,555,5,SBD,Single-ply,Open
Mathias Siegle,M,79.1,83,1963,235,-250,,235,152.5,162.5,-170,162.5,235,245,-255,245,642.5,11,SBD,Single-ply,Open
Silas Krejci,M,79.3,83,1999,250,265,-280,265,145,152.5,160,160,215,230,245,245,670,3,SBD,Single-ply,Open
Christian Rupp,M,80.1,83,1999,160,170,-180,170,140,145,150,150,190,200,,200,520,11,SBD,Single-ply,Open
Hubert Wagner,M,80.3,83,1981,180,190,200,200,130,137.5,-142.5,137.5,240,250,,250,587.5,14,SBD,Single-ply,Open
Marco Dömling,M,81.45,83,1976,215,232.5,242.5,242.5,140,147.5,-152.5,147.5,200,215,-225,215,605,13,SBD,Single-ply,Open
János Geerhardt,M,81.7,83,1967,197.5,210,215,215,130,-140,-140,130,225,240,-245,240,585,13,SBD,Single-ply,Open
Hannes Haase,M,82.9,83,1998,-265,265,,265,190,200,-215,200,220,235,250,250,715,1,SBD,Single-ply,Open
Ron Kronschwitz,M,83.7,93,1981,250,265,275,275,185,192.5,-200,192.5,240,-250,250,250,717.5,4,SBD,Single-ply,Open
Ricardo Schunk,M,84.8,93,1970,-245,252.5,-260,252.5,170,175,177.5,177.5,220,230,-235,230,660,12,SBD,Single-ply,Open
Thomas Korell,M,84.9,93,1983,250,262.5,-275,262.5,180,190,-210,190,235,250,-257.5,250,702.5,10,SBD,Single-ply,Open
Luca Kupitz,M,86.3,93,1997,195,-202.5,-202.5,195,120,130,135,135,225,255,,255,585,12,SBD,Single-ply,Open
Jaari Kristian Ott,M,87.4,93,1993,215,225,235,235,150,160,-170,160,245,265,280,280,675,5,SBD,Single-ply,Open
Ronny Berndt,M,90.55,93,1979,285,-305,-305,285,-235,235,-245,235,240,250,-260,250,770,2,SBD,Single-ply,Open
Michael Hurtig,M,90.8,93,1982,240,255,-262.5,255,185,-190,-190,185,260,275,-287.5,275,715,14,SBD,Single-ply,Open
Ronny Schröder,M,92.3,93,1979,250,-260,260,260,140,150,160,160,250,265,272.5,272.5,692.5,8,SBD,Single-ply,Open
Lennart Alber,M,93,93,2002,215,225,240,240,120,130,-137.5,130,220,230,237.5,237.5,607.5,10,SBD,Single-ply,Open
Axel Hüter,M,94,105,1971,230,-255,-255,230,145,150,155,155,210,230,235,235,620,7,SBD,Single-ply,Open
Aaron Weiß,M,94.1,105,1991,270,-285,285,285,172.5,180,190,190,285,310,-315,310,785,4,SBD,Single-ply,Open
Daniel Ruprecht,M,94.6,105,1990,260,270,280,280,145,152.5,-157.5,152.5,240,255,-265,255,687.5,11,SBD,Single-ply,Open
Philipp Gröbner,M,94.95,105,1987,200,210,217.5,217.5,170,175,180,180,230,-240,-240,230,627.5,12,SBD,Single-ply,Open
Sergej Sergeev,M,95.8,105,1994,205,215,-225,215,130,135,-140,135,230,240,-250,240,590,14,SBD,Single-ply,Open
Sebastian Gronschel,M,96.3,105,1992,210,220,230,230,-180,190,200,200,220,235,-252.5,235,665,4,SBD,Single-ply,Open
Sven Schröder,M,97.7,105,1983,210,220,230,230,160,175,-187.5,175,220,230,240,240,645,8,SBD,Single-ply,Open
Francesco Virzi,M,98,105,1983,200,215,225,225,150,165,172.5,172.5,200,225,245,245,642.5,4,SBD,Single-ply,Open
Michael Pyritz,M,98.7,105,1971,215,230,,230,135,142.5,150,150,240,250,,250,630,8,SBD,Single-ply,Open
Marc James,M,100.6,105,1993,275,285,290,290,155,160,162.5,162.5,250,265,277.5,277.5,730,7,SBD,Single-ply,Open
René Ullerich,M,101.3,105,1978,295,315,325,325,180,200,210,210,260,292.5,-300,292.5,827.5,8,SBD,Single-ply,Open
Tim Baldensperger,M,101.5,105,1992,225,240,250,250,135,145,150,150,240,255,265,265,665,15,SBD,Single-ply,Open
Simon Bausewein,M,101.8,105,1997,250,260,267.5,267.5,167.5,-172.5,-172.5,167.5,235,242.5,247.5,247.5,682.5,13,SBD,Single-ply,Open
Eric Stockdreher,M,103.2,105,1996,-255,265,272.5,272.5,180,187.5,192.5,192.5,220,-235,235,235,700,9,SBD,Single-ply,Open
Chris Röper,M,103.3,105,1987,-230,230,-245,230,-230,230,-250,230,250,275,-290,275,735,7,SBD,Single-ply,Open
Matthias Simpig,M,103.4,105,1972,250,260,-270,260,170,180,190,190,240,250,-260,250,700,4,SBD,Single-ply,Open
Sven Saiko,M,103.5,105,1991,260,275,280,280,205,215,222.5,222.5,265,280,287.5,287.5,790,7,SBD,Single-ply,Open
Milan Bogner,M,103.8,105,1988,255,-265,270,270,210,-215,-215,210,260,275,287.5,287.5,767.5,2,SBD,Single-ply,Open
Christian Flueras,M,104.2,105,1996,-290,-290,300,300,-240,240,-250,240,240,250,-260,250,790,4,SBD,Single-ply,Open
Tim Daniel Konertz,M,105.5,120,1989,315,330,,330,195,-205,205,205,305,325,340,340,875,5,SBD,Single-ply,Open
Tobias Jahn,M,106.9,120,2001,152.5,165,175,175,92.5,-105,105,105,152.5,170,180,180,460,1,SBD,Single-ply,Open
Martin Lange,M,107.7,120,1987,335,345,,345,240,250,260,260,290,305,315,315,920,1,SBD,Single-ply,Open
Malte Fleissner,M,108,120,1989,-280,280,320,320,240,-250,,240,280,-320,,280,840,16,SBD,Single-ply,Open
Steven Podas,M,108.7,120,1989,-310,-310,310,310,-170,170,182.5,182.5,250,260,-270,260,752.5,15,SBD,Single-ply,Open
Martin Persen,M,109.7,120,1987,-282.5,-287.5,295,295,185,192.5,-200,192.5,255,270,-275,270,757.5,9,SBD,Single-ply,Open
Jannik Hinsch,M,113,120,1989,300,315,-330,315,185,200,-210,200,250,-265,-265,250,765,4,SBD,Single-ply,Open
Mateusz Volk,M,117,120,1992,240,-260,270,270,110,115,122.5,122.5,280,300,315,315,707.5,11,SBD,Single-ply,Open
Stefan Rzehak,M,119.9,120,1991,337.5,345,355,355,155,160,,160,320,-337.5,-337.5,320,835,16,SBD,Single-ply,Open
René Groß,M,121.2,120+,1981,305,325,-335,325,270,285,300,300,245,260,-275,260,885,1,SBD,Single-ply,Open
Thorsten van Berg,M,123.5,120+,1985,-300,-310,-310,,170,-177.5,-185,170,280,,,280,,DQ,SBD,Single-ply,Open
Adrian Peist,M,126.7,120+,1995,210,220,227.5,227.5,145,155,-162.5,155,240,250,260,260,642.5,15,SBD,Single-ply,Open
Kevin Jäger #1,M,139.4,120+,1995,240,260,275,275,190,205,-212.5,205,237.5,267.5,-282.5,267.5,747.5,2,SBD,Single-ply,Open
Jan Grigat,M,178,120+,1993,-310,330,-350,330,210,230,-240,230,260,270,,270,830,10,SBD,Single-ply,Open
