Event,Equipment,Sex,Division,WeightClassKg,Name,Best3SquatKg,Squat4Kg,Best3BenchKg,Bench4Kg,Best3DeadliftKg,Deadlift4Kg,TotalKg,BodyweightKg,BirthDate,Place
SBD,Raw,M,Amateur Teen 16-17,75,Collin Koser,136.08,,90.72,,204.12,,430.91,74.34,1994-07-29,1
SBD,Raw,M,Amateur Teen 16-17,90,Griffen Yeager,192.78,,124.74,,226.8,,544.31,85,1995-10-21,1
SBD,Raw,F,Amateur Masters 40-44,67.5,Wendy Tracey,74.84,,56.7,,106.59,,238.14,64.86,1969-02-14,1
SBD,Multi-ply,F,Pro Open,48,Elaine Grimwood,170.1,,90.72,,158.76,163.29,419.57,47.22,1970-12-06,1
SBD,Raw,M,Amateur Juniors 20-23,75,Nu Akalegbere,217.72,,170.1,,230.2,234.73,618.02,73.35,1991-05-27,1
SBD,Raw,M,Amateur Juniors 20-23,90,Clinton Koser,204.12,,154.22,,249.48,,607.81,84.91,1988-02-03,1
SBD,Raw,M,Amateur Juniors 20-23,100,Casey Williams,272.16,,197.31,,299.37,,768.84,98.34,1987-12-13,1
SBD,Raw,M,Pro Juniors 20-23,100,Alex Truman,265.35,,206.38,,272.16,,743.89,99.34,1990-08-26,1
SBD,Multi-ply,M,Amateur Open,125,Tim Davis,297.1,,195.04,,251.74,,743.89,118.48,1985-06-03,1
SBD,Multi-ply,M,Amateur Open,125,Patrick Marcotti,290.3,,183.7,,240.4,,714.41,113.99,1971-09-20,2
SBD,Multi-ply,M,Amateur Open,140,Eric Halvorsen,317.51,,229.06,,272.16,,818.73,137.39,1981-08-17,1
SBD,Multi-ply,M,Pro Open,75,Dustin Cyr,356.07,,233.6,,272.16,,861.83,73.94,1984-12-19,1
SBD,Multi-ply,M,Pro Open,90,David Kirschen,331.12,,263.08,,267.62,,861.83,88.31,1977-08-02,1
SBD,Multi-ply,M,Pro Open,100,Danny Diemert,340.19,,215.46,,283.5,,839.15,95.66,1984-08-02,1
SBD,Multi-ply,M,Pro Open,100,David Snyder,274.42,,163.29,,204.12,,641.83,94.89,1977-12-20,2
SBD,Multi-ply,M,Pro Open,100,James Howell,322.05,364.01,136.08,,136.08,,594.21,96.12,1965-01-23,3
SBD,Multi-ply,M,Pro Open,110,Jim Jones,362.87,,276.69,,285.76,,925.33,104.14,1973-07-25,1
SBD,Multi-ply,M,Pro Open,110,Justin Enes,362.87,,229.06,,322.05,,913.99,109.41,1982-09-08,2
SBD,Multi-ply,M,Pro Open,140,Jason Pegg,367.41,,113.4,,328.85,,809.66,130.86,1979-11-02,1
SBD,Raw,M,Amateur Open,82.5,Ed Harrington,165.56,,161.03,,204.12,,530.7,82.42,,1
SBD,Raw,M,Amateur Open,110,Casey Drader,183.7,,142.88,,226.8,,553.38,105.32,1986-08-14,1
SBD,Raw,M,Elite Amateur Open,82.5,Larry Dyles,263.08,272.16,172.37,,242.67,,678.12,80.97,1983-08-16,1
SBD,Raw,M,Pro Open,82.5,Larry Dyles,263.08,272.16,172.37,,242.67,,678.12,80.97,1983-08-16,1
SBD,Raw,M,Pro Open,82.5,Jason Winters,215.46,,142.88,,226.8,,585.13,81.42,1981-02-03,2
SBD,Raw,M,Pro Open,140,Dan Kovacs,333.39,344.73,283.5,289.17,365.14,,982.03,139.66,1970-03-06,1
SBD,Raw,M,Amateur Submasters 33-39,90,James Stroud,149.69,,142.88,,226.8,,519.36,89.36,1972-08-16,1
SBD,Multi-ply,M,Pro Masters 60-64,90,James Cash,201.85,,149.69,,251.74,,603.28,89.9,1949-11-06,1
SBD,Multi-ply,M,Pro Masters 40-44,100,Dean Moore,340.19,,226.8,,226.8,,793.79,94.17,1967-05-10,1
SBD,Multi-ply,M,Pro Masters 45-49,100,James Howell,322.05,364.01,136.08,,136.08,,594.21,96.12,1965-01-23,1
SBD,Multi-ply,M,Pro Masters 40-44,140+,Andrew Vale,453.59,,235.87,,294.84,,984.3,144.38,1970-11-03,1
SBD,Raw,M,Amateur Masters 65-69,67.5,Italo Bonacci,140.61,,77.11,,162.39,,380.11,67.13,1944-06-15,1
SBD,Raw,M,Amateur Masters 55-59,75,Doug Kline,154.22,158.76,127.01,,199.58,201.85,480.81,74.21,1954-06-05,1
SBD,Raw,M,Amateur Masters 45-49,125,Butch Dayhoff,210.92,,129.27,,235.87,,576.06,117.48,1966-02-02,1
SBD,Raw,M,Pro Masters 65-69,82.5,Patrick Mullaney,140.61,142.88,133.81,,197.31,,471.74,78.11,1945-02-19,1
SBD,Raw,M,Pro Masters 50-54,100,Ricardo Ingravera,185.97,,122.47,,244.94,,553.38,90.9,1960-09-18,1
SBD,Raw,M,Amateur Police,90,Michael Boyd,217.72,,149.69,,204.12,,571.53,86.5,1983-03-30,1
SBD,Raw,M,Amateur Police,140+,Andrew Trostle,206.38,,120.2,,251.74,,578.33,147.64,1982-10-15,1
SBD,Raw,M,Pro Police,125,Joseph Sauble,244.94,256.28,181.44,,181.44,,607.81,117.16,1975-09-18,1
SD,Multi-ply,M,Amateur Open,110,Kevin Nelson,238.14,,,,226.8,,464.93,107.5,1970-10-08,1
BD,Raw,M,Amateur Open,82.5,Jon Mullany,,,161.03,,181.44,,342.46,79.97,1978-01-13,1
D,Multi-ply,M,Amateur Masters 60-64,140+,Les Jordan,,,,,199.58,,199.58,144.42,1951-08-20,1
D,Multi-ply,M,Pro Masters 60-64,140+,Les Jordan,,,,,199.58,,199.58,144.42,1951-08-20,1
B,Raw,F,Amateur Teen 16-17,56,Elizabeth Cooley,,,58.97,,,,58.97,54.3,1993-12-03,1
B,Raw,M,Amateur Teen 18-19,82.5,Brandon Mose,,,154.22,,,,154.22,76.61,1993-06-19,1
B,Raw,M,Amateur Juniors 20-23,140+,Thomas Murray,,,231.33,,,,231.33,155.95,1988-09-30,1
B,Multi-ply,M,Pro Open,100,Brian Rainone,,,206.38,,,,206.38,95.16,1984-03-27,1
B,Multi-ply,M,Pro Open,125,Doug Smithey,,,347,,,,347,112.63,1974-07-27,1
B,Multi-ply,M,Pro Open,140,Andrew Bosnyak,,,326.59,,,,326.59,135.22,1979-05-20,1
B,Multi-ply,M,Amateur Open,125,Ian Giusti,,,165.56,,,,165.56,123.79,1984-08-08,1
B,Multi-ply,M,Amateur Open,140+,Thomas Murray,,,231.33,,,,231.33,155.95,1988-09-30,1
B,Raw,M,Pro Open,125,Bryce Peterson,,,242.67,,,,242.67,112.04,1982-05-22,1
B,Multi-ply,M,Pro Submasters 33-39,125,Doug Smithey,,,347,,,,347,112.63,1974-07-27,1
B,Multi-ply,M,Amateur Masters 50-54,90,Steven Dussault,,,,226.8,,,,86.55,1960-03-18,DQ
B,Multi-ply,M,Amateur Masters 40-44,110,Duane Wray,,,263.08,,,,263.08,102.1,1968-11-14,1
B,Multi-ply,M,Amateur Masters 45-49,110,Brian Yoder Sr,,,258.55,,,,258.55,105.78,1962-11-30,1
B,Multi-ply,M,Pro Masters 65-69,90,Chuck Mulligan,,,124.74,,,,124.74,87.91,1943-01-22,1
B,Multi-ply,M,Pro Masters 40-44,110,John Roberts III,,,204.12,,,,204.12,103.74,1971-11-09,1
B,Multi-ply,M,Amateur Masters 70-74,90,John Moore,,,108.86,111.13,,,108.86,89.13,1937-06-12,1
B,Multi-ply,M,Amateur Masters 75-79,90,Robert Dahlhamer,,,117.93,,,,117.93,88.45,1936-11-16,1
B,Multi-ply,M,Amateur Masters 65-69,100,Brooke Blough,,,99.79,,,,99.79,97.93,1942-07-03,1
B,Multi-ply,M,Amateur Masters 50-54,110,Barry Shatzer,,,131.54,,,,131.54,108.77,1959-04-21,1
B,Multi-ply,M,Amateur Masters 75-79,125,Don Joy,,,127.01,131.54,,,127.01,113.9,1931-12-24,1
B,Raw,M,Pro Masters 70-74,90,John Moore,,,108.86,111.13,,,108.86,89.13,1937-06-12,1
B,Raw,M,Pro Masters 65-69,100,Brooke Blough,,,99.79,,,,99.79,97.93,1942-07-03,1
B,Raw,M,Pro Masters 45-49,110,Todd Willow,,,183.7,,,,183.7,109.23,1965-03-18,1
B,Raw,M,Pro Masters 60-64,125,Bob O'Brien,,,131.54,,,,131.54,120.7,1947-08-24,1
B,Raw,M,Pro Police,125,Mike Barravecchio,,,199.58,,,,199.58,123.38,1968-10-16,1
