Name,Sex,Division,BodyweightKg,WeightClassKg,Age,Event,Equipment,Squat1Kg,Squat2Kg,Squat3Kg,Best3SquatKg,Bench1Kg,Bench2Kg,Bench3Kg,Best3BenchKg,Deadlift1Kg,Deadlift2Kg,Deadlift3Kg,Best3DeadliftKg,TotalKg,Place
Suzie Clark,F,Masters 50-54,65.8,72,51,SBD,Raw,75,80,85,85,55,60,-65,60,110,117.5,125,125,270,1
Kavishi Kariyawasam,F,Open,51.1,53,25,SBD,Raw,110,115,-120,115,47.5,-52.5,-52.5,47.5,130,142.5,150,150,312.5,1
Jas Baker,F,Sub-Juniors,63.4,64,17,SBD,Raw,142.5,150,156,156,77.5,-82.5,-82.5,77.5,147.5,157.5,-162.5,157.5,391,1
Daniel Russell,M,Juniors,82.7,85,22,SBD,Raw,175,190,-200,190,117.5,125,-130,125,190,210,220,220,535,1
James Tevega,M,Juniors,142.5,120+,22,SBD,Raw,250,265,280,280,155,165,-175,165,240,260,-275,260,705,1
Brian Froggart,M,Masters 60-64,70.7,77,61,B,Raw,,,,,115,120,125,125,,,,,125,1
