Division,WeightClassKg,Place,Name,Team,BodyweightKg,Best3SquatKg,Best3BenchKg,Best3DeadliftKg,TotalKg,Equipment,Event,Sex
Boys,55.79,1,Randy Salinas,Bangs,51.75,129.27,72.57,154.22,356.07,Single-ply,SBD,M
Boys,51.71,2,Jason Ayers,Lampasas,51.44,117.93,65.77,131.54,315.25,Single-ply,SBD,M
Boys,51.71,3,Luke Argo,Lampasas,50.71,120.2,52.16,127.01,299.37,Single-ply,SBD,M
Boys,51.71,4,Gabriel Spikes,Lago Vista,48.94,99.79,65.77,117.93,283.5,Single-ply,SBD,M
Boys,51.71,5,Dalton Dewveall,Llano,46.72,102.06,52.16,113.4,267.62,Single-ply,SBD,M
Boys,51.71,6,Seth Kerchville,Liberty Hill,50.44,77.11,56.7,102.06,235.87,Single-ply,SBD,M
Boys,51.71,7,Tyler Dews,Gatesville,51.3,77.11,38.56,90.72,206.38,Single-ply,SBD,M
Boys,51.71,8,Mason Matthews,Gatesville,48.76,72.57,43.09,86.18,201.85,Single-ply,SBD,M
Boys,51.71,9,Wyatt Ivey,Lometa,49.35,63.5,45.36,90.72,199.58,Single-ply,SBD,M
Boys,51.71,10,Payton Johnson,San Saba,46.4,70.31,40.82,79.38,190.51,Single-ply,SBD,M
Boys,55.79,1,Nimo Vega,San Saba,55.79,127.01,79.38,149.69,356.07,Single-ply,SBD,M
Boys,59.87,2,Chris Ramirez,Lampasas,56.02,117.93,70.31,145.15,333.39,Single-ply,SBD,M
Boys,55.79,3,Jarron Kirkland,Brady,55.02,81.65,49.9,113.4,244.94,Single-ply,SBD,M
Boys,55.79,4,Marcus Griffith,Lometa,55.57,74.84,54.43,113.4,242.67,Single-ply,SBD,M
Boys,59.87,1,Will Meng,Liberty Hill,58.56,156.49,90.72,142.88,390.09,Single-ply,SBD,M
Boys,59.87,2,Noah Gibbs,Liberty Hill,59.83,136.08,83.91,145.15,365.14,Single-ply,SBD,M
Boys,59.87,3,Dominic Garcia,Burnet,57.7,124.74,83.91,154.22,362.87,Single-ply,SBD,M
Boys,59.87,4,Dorian Jimenez,Brady,56.84,117.93,63.5,151.95,333.39,Single-ply,SBD,M
Boys,59.87,5,Justus Alaniz,Lometa,58.97,113.4,77.11,136.08,326.59,Single-ply,SBD,M
Boys,59.87,6,Seth Bradfute,Lampasas,58.74,104.33,63.5,120.2,288.03,Single-ply,SBD,M
Boys,67.13,1,Corey Crowell,Bangs,66.18,170.1,111.13,172.37,453.59,Single-ply,SBD,M
Boys,74.84,2,Scott Zufelt,Lago Vista,67.36,154.22,86.18,204.12,444.52,Single-ply,SBD,M
Boys,67.13,3,Seth Lozano,Lago Vista,65.73,156.49,86.18,158.76,401.43,Single-ply,SBD,M
Boys,74.84,4,Will Smith,Lampasas,67.31,147.42,86.18,151.95,385.55,Single-ply,SBD,M
Boys,67.13,5,Christian Rodriquez,Llano,65.86,136.08,90.72,136.08,362.87,Single-ply,SBD,M
Boys,67.13,6,Trevor Penny,Llano,63.19,142.88,74.84,133.81,351.53,Single-ply,SBD,M
Boys,67.13,7,Mark DeLeon,Brady,61.69,131.54,70.31,142.88,344.73,Single-ply,SBD,M
Boys,67.13,8,Angel Gonzales,Lago Vista,63.41,122.47,79.38,129.27,331.12,Single-ply,SBD,M
Boys,67.13,9,Justin Becker,Liberty Hill,67.09,102.06,86.18,115.67,303.91,Single-ply,SBD,M
Boys,67.13,10,Seth Waters,Gatesville,62.91,108.86,70.31,122.47,301.64,Single-ply,SBD,M
Boys,67.13,11,Jackson Cox,Marble Falls,64.59,102.06,81.65,115.67,299.37,Single-ply,SBD,M
Boys,67.13,12,Keylan Herman,Liberty Hill,60.46,108.86,68.04,117.93,294.84,Single-ply,SBD,M
Boys,67.13,13,Isreal Ruiz,Liberty Hill,62.19,102.06,61.23,124.74,288.03,Single-ply,SBD,M
Boys,67.13,14,Rowdy Carlson,Brady,60.46,86.18,70.31,113.4,269.89,Single-ply,SBD,M
Boys,67.13,15,Kyle Reed,Llano,62.28,81.65,68.04,120.2,269.89,Single-ply,SBD,M
Boys,67.13,DQ,Cosme Diaz,San Saba,66,,,,,Single-ply,SBD,M
Boys,67.13,DQ,Jonathan Mansell,Lampasas,61.28,92.99,,,,Single-ply,SBD,M
Boys,74.84,1,Chase McGhee,Gatesville,71.17,213.19,129.27,204.12,546.58,Single-ply,SBD,M
Boys,74.84,2,Jake Gravell,Bangs,73.8,181.44,127.01,192.78,501.22,Single-ply,SBD,M
Boys,74.84,3,Kevin Reed,Marble Falls,74.21,172.37,120.2,199.58,492.15,Single-ply,SBD,M
Boys,74.84,4,Allen Scott,Gatesville,73.07,190.51,108.86,174.63,474,Single-ply,SBD,M
Boys,74.84,5,Avery Gary,Lampasas,69.81,165.56,104.33,176.9,446.79,Single-ply,SBD,M
Boys,74.84,6,Joel Camacho,Marble Falls,69.9,158.76,106.59,172.37,437.72,Single-ply,SBD,M
Boys,74.84,7,Knijan Bell-Williams,Lampasas,69.85,156.49,102.06,170.1,428.64,Single-ply,SBD,M
Boys,82.1,8,Brodee Johnson,Burnet,74.89,154.22,102.06,158.76,415.04,Single-ply,SBD,M
Boys,74.84,9,Travis Dilworth,Marble Falls,70.76,136.08,92.99,158.76,387.82,Single-ply,SBD,M
Boys,74.84,10,Todd Phillips,Lampasas,72.8,136.08,77.11,158.76,371.95,Single-ply,SBD,M
Boys,74.84,11,Gary Flores,Brady,70.53,142.88,72.57,154.22,369.68,Single-ply,SBD,M
Boys,74.84,12,Colton Cunningham,Liberty Hill,73.26,136.08,83.91,147.42,367.41,Single-ply,SBD,M
Boys,74.84,13,Alex Guardado,Lago Vista,68.81,140.61,68.04,147.42,356.07,Single-ply,SBD,M
Boys,74.84,14,Ryan Baxter,Lampasas,74.34,124.74,70.31,131.54,326.59,Single-ply,SBD,M
Boys,74.84,15,Dillion Sims,Lometa,69.22,104.33,77.11,136.08,317.51,Single-ply,SBD,M
Boys,74.84,16,Anthony Pierno,Lampasas,68.9,108.86,63.5,136.08,308.44,Single-ply,SBD,M
Boys,74.84,DQ,Alec Pedigo,Lago Vista,70.31,,,,,Single-ply,SBD,M
Boys,74.84,DQ,Chance Runnels,Liberty Hill,69.94,99.79,,,,Single-ply,SBD,M
Boys,82.1,1,Cody Jandreau,Lampasas,82.1,188.24,142.88,183.7,514.83,Single-ply,SBD,M
Boys,82.1,2,Evan Wotipka,Lago Vista,81.78,174.63,117.93,188.24,480.81,Single-ply,SBD,M
Boys,82.1,3,Steven Jazdyk,Lampasas,80.65,167.83,99.79,195.04,462.66,Single-ply,SBD,M
Boys,89.81,4,Kasey Kiphen,Gatesville,82.24,170.1,104.33,183.7,458.13,Single-ply,SBD,M
Boys,89.81,5,Ismael Ramierez,San Saba,82.33,172.37,108.86,176.9,458.13,Single-ply,SBD,M
Boys,89.81,6,Nick Moler,Gatesville,82.28,174.63,81.65,185.97,442.25,Single-ply,SBD,M
Boys,82.1,7,Dylan Rosales,San Saba,80.6,163.29,99.79,176.9,439.98,Single-ply,SBD,M
Boys,82.1,8,Chaseland Taylor,Lago Vista,81.6,154.22,102.06,174.63,430.91,Single-ply,SBD,M
Boys,82.1,9,Hunter Wilkinson,Lampasas,76.11,158.76,99.79,167.83,426.38,Single-ply,SBD,M
Boys,82.1,10,Jesse Uvalle,Lampasas,79.51,142.88,104.33,167.83,415.04,Single-ply,SBD,M
Boys,82.1,11,Dakota Corbut,Liberty Hill,81.1,151.95,86.18,158.76,396.89,Single-ply,SBD,M
Boys,82.1,12,Isreal Guzman,Marble Falls,75.43,120.2,83.91,149.69,353.8,Single-ply,SBD,M
Boys,82.1,13,Hunter Berget,Lampasas,75.16,102.06,68.04,163.29,333.39,Single-ply,SBD,M
Boys,82.1,14,Justin Wilson,Liberty Hill,81.24,106.59,83.91,127.01,317.51,Single-ply,SBD,M
Boys,82.1,DQ,Collin Mayne,Llano,81.69,72.57,92.99,,,Single-ply,SBD,M
Boys,99.79,1,Josh Beckwith,Bangs,90.04,242.67,147.42,217.72,607.81,Single-ply,SBD,M
Boys,99.79,2,Caleb Penny,Llano,89.95,199.58,129.27,181.44,510.29,Single-ply,SBD,M
Boys,89.81,3,Jared McHazlett,Burnet,86.55,161.03,106.59,190.51,458.13,Single-ply,SBD,M
Boys,89.81,4,Noah Bryson,Lago Vista,88.04,156.49,104.33,197.31,458.13,Single-ply,SBD,M
Boys,89.81,5,Justin Mosley,Gatesville,85.46,181.44,102.06,170.1,453.59,Single-ply,SBD,M
Boys,89.81,6,Jacob Covington,Liberty Hill,84.59,172.37,111.13,156.49,439.98,Single-ply,SBD,M
Boys,89.81,7,Topher McGehee,Lampasas,88.9,172.37,90.72,176.9,439.98,Single-ply,SBD,M
Boys,89.81,8,Zach Badon,Liberty Hill,86.14,161.03,92.99,181.44,435.45,Single-ply,SBD,M
Boys,89.81,9,Weston McIntire,Lampasas,86.45,142.88,108.86,183.7,435.45,Single-ply,SBD,M
Boys,89.81,10,Hunter Thomas,Burnet,85.91,163.29,92.99,170.1,426.38,Single-ply,SBD,M
Boys,89.81,11,Chris Carter,Marble Falls,88,142.88,99.79,181.44,424.11,Single-ply,SBD,M
Boys,89.81,12,Cullen Ferrill,Burnet,84.78,149.69,90.72,170.1,410.5,Single-ply,SBD,M
Boys,89.81,13,Sergio Torres #3,Brady,89.31,147.42,99.79,154.22,401.43,Single-ply,SBD,M
Boys,89.81,14,Daniel Calderon,San Saba,86.14,136.08,90.72,149.69,376.48,Single-ply,SBD,M
Boys,89.81,15,Matt McLeod,Liberty Hill,86.18,138.35,90.72,147.42,376.48,Single-ply,SBD,M
Boys,89.81,16,Kenny Alexander,Liberty Hill,86,136.08,79.38,151.95,367.41,Single-ply,SBD,M
Boys,89.81,17,Alex Hupp,Lampasas,82.51,136.08,70.31,149.69,356.07,Single-ply,SBD,M
Boys,89.81,18,Erwin Rodas,Brady,84.96,115.67,72.57,113.4,301.64,Single-ply,SBD,M
Boys,99.79,1,Aaron Johns,Burnet,91.53,197.31,127.01,233.6,557.92,Single-ply,SBD,M
Boys,99.79,2,Bj Walker,Burnet,92.9,183.7,111.13,172.37,467.2,Single-ply,SBD,M
Boys,99.79,3,Kolton Haverland,San Saba,92.99,127.01,95.25,158.76,381.02,Single-ply,SBD,M
Boys,99.79,DQ,Christian Vargas,Brady,98.79,158.76,,,,Single-ply,SBD,M
Boys,99.79,DQ,Grant Dorsey,Lampasas,96.39,102.06,,,,Single-ply,SBD,M
Boys,109.77,1,David Cockrell,Lampasas,107.91,199.58,151.95,192.78,544.31,Single-ply,SBD,M
Boys,109.77,2,Will Smith,Liberty Hill,104.33,206.38,142.88,190.51,539.77,Single-ply,SBD,M
Boys,109.77,3,Brian Rogers,San Saba,101.42,199.58,120.2,204.12,523.9,Single-ply,SBD,M
Boys,109.77,4,Vincent Campuzano,Marble Falls,104.96,197.31,124.74,201.85,523.9,Single-ply,SBD,M
Boys,109.77,5,Justin Rhyne,Gatesville,104.42,181.44,142.88,181.44,505.76,Single-ply,SBD,M
Boys,109.77,6,Mitchell Grimm,Liberty Hill,102.24,206.38,113.4,174.63,494.42,Single-ply,SBD,M
Boys,109.77,7,Christopher Saldivar,Burnet,101.29,181.44,111.13,165.56,458.13,Single-ply,SBD,M
Boys,109.77,8,Zach McLesky,Burnet,100.47,163.29,102.06,181.44,446.79,Single-ply,SBD,M
Boys,109.77,9,Robert Salvatierra,Liberty Hill,108.82,174.63,108.86,161.03,444.52,Single-ply,SBD,M
Boys,109.77,10,Juan Mungia,Llano,103.46,120.2,88.45,142.88,351.53,Single-ply,SBD,M
Boys,109.77,11,Kyle Waling,Lometa,107.95,117.93,81.65,136.08,335.66,Single-ply,SBD,M
Boys,109.77,12,Bradley Gunner,Lometa,109,117.93,72.57,131.54,322.05,Single-ply,SBD,M
Boys,109.77,13,Zack Mack,Gatesville,108.68,113.4,65.77,115.67,294.84,Single-ply,SBD,M
Boys,109.77,14,Isaiah Castanuila,Brady,102.01,106.59,68.04,111.13,285.76,Single-ply,SBD,M
Boys,124.74,1,James Nesom,Burnet,120.43,256.28,138.35,233.6,628.23,Single-ply,SBD,M
Boys,124.74,2,Michiel Buya,Marble Falls,118.98,231.33,149.69,192.78,573.79,Single-ply,SBD,M
Boys,124.74,3,Zak Hudspeth,Gatesville,110.5,199.58,106.59,204.12,510.29,Single-ply,SBD,M
Boys,124.74,4,Jacob Bryer,Marble Falls,117.57,190.51,113.4,185.97,489.88,Single-ply,SBD,M
Boys,124.74,5,Matt Fox,Liberty Hill,113.81,165.56,97.52,158.76,421.84,Single-ply,SBD,M
Boys,124.74,6,Colton Roark,Llano,118.34,136.08,90.72,154.22,381.02,Single-ply,SBD,M
Boys,124.74+,1,Diego Montoya,San Saba,129.55,272.16,170.1,249.48,691.73,Single-ply,SBD,M
Boys,124.74+,2,Jacob Reed,Burnet,133.72,226.8,129.27,217.72,573.79,Single-ply,SBD,M
Boys,124.74+,3,Jake Dibble,Lampasas,146.87,217.72,138.35,204.12,560.19,Single-ply,SBD,M
Boys,124.74+,4,Chase Fry,Marble Falls,145.56,199.58,136.08,192.78,528.44,Single-ply,SBD,M
Boys,124.74+,5,Jacob Sanders,Liberty Hill,129.86,215.46,106.59,190.51,512.56,Single-ply,SBD,M
Boys,124.74+,6,Travis Sparks,Marble Falls,133.45,185.97,108.86,181.44,476.27,Single-ply,SBD,M
Boys,124.74+,7,Jordan Ledbetter,Llano,143.02,136.08,97.52,136.08,369.68,Single-ply,SBD,M
Boys,,NS,Donald Ricketson,Llano,,,,,,Single-ply,SBD,M
Boys,,NS,Dalton Holcomb,Llano,,,,,,Single-ply,SBD,M
Boys,,NS,David Valencia,San Saba,,,,,,Single-ply,SBD,M
Boys,,NS,Bryon Briggs,San Saba,,,,,,Single-ply,SBD,M
Boys,,NS,Tj Hibler,San Saba,,,,,,Single-ply,SBD,M
Boys,,NS,Andy Gamez,Lampasas,,,,,,Single-ply,SBD,M
Boys,,NS,John Beebe,Lago Vista,,,,,,Single-ply,SBD,M
Boys,,NS,River Wylie,Lago Vista,,,,,,Single-ply,SBD,M
Boys,,NS,Ben Bair,Brady,,,,,,Single-ply,SBD,M
Boys,,NS,Trent Cofressi,Bangs,,,,,,Single-ply,SBD,M
