Division,WeightClassKg,Place,Name,Team,BodyweightKg,Best3SquatKg,Best3BenchKg,Best3DeadliftKg,TotalKg,Equipment,Event,Sex
Boys,51.71,1,Chancellor Smith,Katy Mayde Creek,50.35,124.74,104.33,158.76,387.82,Single-ply,SBD,M
Boys,51.71,2,George Bankhead,Freeport Brazosport,51.07,142.88,72.57,170.1,385.55,Single-ply,SBD,M
Boys,51.71,3,Brandon Parish,Galveston Ball,51.44,149.69,86.18,142.88,378.75,Single-ply,SBD,M
Boys,51.71,4,Patrick Herfurth,Orange Little Cypress-Mauriceville,50.98,124.74,70.31,167.83,362.87,Single-ply,SBD,M
Boys,55.79,5,Jacob Cadieux,Waller,51.94,138.35,65.77,149.69,353.8,Single-ply,SBD,M
Boys,51.71,6,Javon Boutte,Houston Madison,51.71,136.08,68.04,136.08,340.19,Single-ply,SBD,M
Boys,51.71,7,Connor Evans,Conroe The Woodlands,50.89,115.67,70.31,142.88,328.85,Single-ply,SBD,M
Boys,51.71,8,Bryant Carruth,Lumberton,51.07,108.86,72.57,140.61,322.05,Single-ply,SBD,M
Boys,51.71,9,Eric Eckert,Magnolia,50.44,104.33,77.11,138.35,319.78,Single-ply,SBD,M
Boys,51.71,10,Lewis Findley,Livingston,50.98,113.4,61.23,124.74,299.37,Single-ply,SBD,M
Boys,55.79,DQ,Adel Jebokji,Port Neches-Groves,51.94,129.27,79.38,,,Single-ply,SBD,M
Boys,55.79,1,Kenny Nguyen,Dickinson,55.52,183.7,136.08,185.97,505.76,Single-ply,SBD,M
Boys,55.79,2,Daniel Moreno #3,Dayton,54.79,165.56,92.99,172.37,430.91,Single-ply,SBD,M
Boys,55.79,3,Jeremy Charles,Willis,54.79,154.22,106.59,158.76,419.57,Single-ply,SBD,M
Boys,55.79,4,Randy Holland,Clute Brazoswood,55.25,151.95,102.06,161.03,415.04,Single-ply,SBD,M
Boys,55.79,5,Jamahl Johnson,Houston Cypress Woods,53.71,158.76,83.91,161.03,403.7,Single-ply,SBD,M
Boys,55.79,6,Cecilio Hernandez,Dickinson,54.79,147.42,72.57,142.88,362.87,Single-ply,SBD,M
Boys,55.79,7,Trey Marerro,Alvin,54.07,140.61,79.38,140.61,360.61,Single-ply,SBD,M
Boys,55.79,8,Chris Player,Manvel,55.43,131.54,86.18,136.08,353.8,Single-ply,SBD,M
Boys,55.79,9,Travis White,Orange Little Cypress-Mauriceville,54.16,124.74,65.77,154.22,344.73,Single-ply,SBD,M
Boys,55.79,10,Coutre Wiggins,Bay City,55.61,138.35,70.31,122.47,331.12,Single-ply,SBD,M
Boys,55.79,DQ,Kyle Haily,Tomball,55.79,,,,,Single-ply,SBD,M
Boys,67.13,1,Ja'Core Aldridge,La Marque,60.06,210.92,115.67,215.46,542.04,Single-ply,SBD,M
Boys,59.87,2,Anthony Grimes,Katy Mayde Creek,59.24,185.97,108.86,213.19,508.02,Single-ply,SBD,M
Boys,59.87,3,Eric Garza,Magnolia West,59.69,197.31,113.4,188.24,498.95,Single-ply,SBD,M
Boys,59.87,4,Caffery Penn,Conroe The Woodlands,59.42,181.44,104.33,192.78,478.54,Single-ply,SBD,M
Boys,59.87,5,Max Baronaske,Tomball,59.6,165.56,124.74,176.9,467.2,Single-ply,SBD,M
Boys,59.87,6,Austin Alexander,Conroe Caney Creek,59.78,172.37,106.59,183.7,462.66,Single-ply,SBD,M
Boys,59.87,7,David Bolinger,Vidor,56.97,167.83,97.52,167.83,433.18,Single-ply,SBD,M
Boys,59.87,8,Tyler Marcel,Conroe Oak Ridge,59.51,149.69,97.52,172.37,419.57,Single-ply,SBD,M
Boys,59.87,9,Leo Gonzalez,Alvin,59.6,133.81,102.06,179.17,415.04,Single-ply,SBD,M
Boys,59.87,10,DeMarco Corner,Manvel,59.6,156.49,83.91,167.83,408.23,Single-ply,SBD,M
Boys,59.87,DQ,Javier Garcia,Orange Little Cypress-Mauriceville,59.69,,,,,Single-ply,SBD,M
Boys,67.13,1,Brice LaMach,Bay City,66.32,224.53,129.27,215.46,569.26,Single-ply,SBD,M
Boys,67.13,2,Jared Wetuski,Montgomery,63.68,226.8,136.08,199.58,562.45,Single-ply,SBD,M
Boys,74.84,3,Darvin Gatlin,Beaumont West Brook,67.31,215.46,111.13,206.38,532.97,Single-ply,SBD,M
Boys,67.13,4,Josh Salas,Katy Mayde Creek,66.68,195.04,108.86,215.46,519.36,Single-ply,SBD,M
Boys,74.84,5,Martin Banda,Manvel,67.36,208.65,106.59,199.58,514.83,Single-ply,SBD,M
Boys,67.13,6,Jesse Trevino,Houston Milby,66.41,183.7,115.67,204.12,503.49,Single-ply,SBD,M
Boys,67.13,7,Eric Johnson,Houston Cypress Woods,67.13,183.7,111.13,197.31,492.15,Single-ply,SBD,M
Boys,67.13,8,Zach Massey,Vidor,65.5,176.9,102.06,183.7,462.66,Single-ply,SBD,M
Boys,67.13,DQ,John Calhoun,Texas City,67.13,,,,,Single-ply,SBD,M
Boys,67.13,DQ,Richy Lyttle,New Caney Porter,67.13,,,,,Single-ply,SBD,M
Boys,67.13,DQ,Jamal Simms,Houston Madison,67.13,,,,,Single-ply,SBD,M
Boys,67.13,DQ,Devon Collins,Vidor,66.13,172.37,,,,Single-ply,SBD,M
Boys,74.84,1,Ronald Winston,Katy Mayde Creek,73.66,226.8,151.95,226.8,605.55,Single-ply,SBD,M
Boys,74.84,2,Courtland Taylor,Bay City,71.21,235.87,136.08,217.72,589.67,Single-ply,SBD,M
Boys,74.84,3,Kaylon Melancon,Manvel,72.39,219.99,129.27,219.99,569.26,Single-ply,SBD,M
Boys,74.84,4,John Le,Dickinson,74.21,240.4,127.01,195.04,562.45,Single-ply,SBD,M
Boys,74.84,5,John Patty,Montgomery,74.12,222.26,131.54,204.12,557.92,Single-ply,SBD,M
Boys,74.84,6,Ryan McBride,Dayton,71.67,226.8,117.93,192.78,537.51,Single-ply,SBD,M
Boys,74.84,7,Michael Godeaux,Vidor,71.49,215.46,117.93,185.97,519.36,Single-ply,SBD,M
Boys,74.84,8,Kirby Nielsen,Livingston,72.48,219.99,124.74,174.63,519.36,Single-ply,SBD,M
Boys,74.84,9,Raymond Glover,Clute Brazoswood,73.26,192.78,129.27,185.97,508.02,Single-ply,SBD,M
Boys,74.84,10,Matt Gray,Conroe,71.49,181.44,124.74,188.24,494.42,Single-ply,SBD,M
Boys,74.84,11,Westley Potter,Livingston,73.66,185.97,120.2,170.1,476.27,Single-ply,SBD,M
Boys,82.1,1,Christian Andrews,Beaumont Ozen,80.74,258.55,163.29,240.4,662.24,Single-ply,SBD,M
Boys,82.1,2,Justin Eberly,Conroe Caney Creek,80.38,226.8,149.69,272.16,648.64,Single-ply,SBD,M
Boys,82.1,3,Justin Gary,Dickinson,79.74,244.94,161.03,208.65,614.62,Single-ply,SBD,M
Boys,82.1,4,Will Glover,Houston Cypress Woods,79.38,242.67,124.74,226.8,594.21,Single-ply,SBD,M
Boys,82.1,5,Taylor Faridifar,Conroe,80.65,192.78,140.61,215.46,548.85,Single-ply,SBD,M
Boys,82.1,6,Darius Thornton,Houston Westbury,79.02,217.72,133.81,192.78,544.31,Single-ply,SBD,M
Boys,82.1,7,Brandon Pitre,Manvel,76.57,204.12,140.61,192.78,537.51,Single-ply,SBD,M
Boys,82.1,DQ,Cesar Yepes,New Caney Porter,82.1,,,,,Single-ply,SBD,M
Boys,82.1,DQ,Jessie Hooper,Montgomery,78.74,219.99,,,,Single-ply,SBD,M
Boys,82.1,DQ,JT McLawchlin,Santa Fe,79.83,195.04,158.76,,,Single-ply,SBD,M
Boys,82.1,DQ,Victor Tran,Dickinson,79.2,240.4,136.08,,,Single-ply,SBD,M
Boys,89.81,1,Jordan Glenn,Houston Bellaire,85.09,263.08,179.17,260.82,703.07,Single-ply,SBD,M
Boys,89.81,2,Chris Hall,Santa Fe,89.36,242.67,167.83,267.62,678.12,Single-ply,SBD,M
Boys,89.81,3,Mitchell Fountain,Conroe The Woodlands,87.27,256.28,145.15,260.82,662.24,Single-ply,SBD,M
Boys,89.81,4,Coleton Boudreaux,Orange Little Cypress-Mauriceville,86.27,272.16,136.08,226.8,635.03,Single-ply,SBD,M
Boys,89.81,5,Xavier Benitez,Katy Mayde Creek,87.54,231.33,151.95,231.33,614.62,Single-ply,SBD,M
Boys,89.81,6,Anthony Breed,Beaumont Ozen,88.18,215.46,158.76,226.8,601.01,Single-ply,SBD,M
Boys,89.81,7,Shyerome Harris,Magnolia,86.64,238.14,115.67,235.87,589.67,Single-ply,SBD,M
Boys,89.81,8,Jay Boniaby,Clute Brazoswood,86.55,254.01,129.27,201.85,585.13,Single-ply,SBD,M
Boys,89.81,9,Brian Jones,Montgomery,88.09,215.46,147.42,217.72,580.6,Single-ply,SBD,M
Boys,89.81,10,George Stephanson,Conroe Oak Ridge,88.27,226.8,122.47,231.33,580.6,Single-ply,SBD,M
Boys,99.79,1,Roderick Wiltz,Houston Madison,98.7,290.3,161.03,256.28,707.6,Single-ply,SBD,M
Boys,109.77,2,Donnie Preston,Tomball,100.02,278.96,140.61,278.96,698.53,Single-ply,SBD,M
Boys,99.79,3,Michael Hodges,Conroe The Woodlands,97.89,260.82,170.1,265.35,696.26,Single-ply,SBD,M
Boys,99.79,4,Josh Gutierrez,Magnolia West,99.25,256.28,170.1,238.14,664.51,Single-ply,SBD,M
Boys,99.79,5,Alejandro Palana,Katy Mayde Creek,98.16,254.01,127.01,254.01,635.03,Single-ply,SBD,M
Boys,99.79,6,Nathan Klawinsky,Montgomery,98.43,222.26,161.03,238.14,621.42,Single-ply,SBD,M
Boys,99.79,7,Scott Duke,Dickinson,96.25,240.4,129.27,249.48,619.15,Single-ply,SBD,M
Boys,99.79,8,Alvin Nguyen,Alief Taylor,97.34,238.14,142.88,208.65,589.67,Single-ply,SBD,M
Boys,99.79,9,Dj Sweeney,Santa Fe,98.25,219.99,183.7,,403.7,Single-ply,SB,M
Boys,99.79,DQ,Daniel Lema,Clute Brazoswood,98.52,229.06,133.81,,,Single-ply,SB,M
Boys,109.77,DQ,Jorge Colon,Clute Brazoswood,99.97,,,,,Single-ply,SB,M
Boys,99.79,DQ,Mitchell Jennings,Orange Little Cypress-Mauriceville,94.26,,,,,Single-ply,SB,M
Boys,109.77,1,Lorenzo Castaneda,Dickinson,107.32,285.76,181.44,272.16,739.36,Single-ply,SBD,M
Boys,109.77,2,Allan Harris,Beaumont Central,107.68,235.87,179.17,278.96,694,Single-ply,SBD,M
Boys,109.77,3,Cameron Hodge,Katy Mayde Creek,108.5,244.94,170.1,244.94,659.98,Single-ply,SBD,M
Boys,109.77,4,Chris Shepherd,Alvin,108.32,276.69,142.88,235.87,655.44,Single-ply,SBD,M
Boys,109.77,5,Cody Gonzalez,Manvel,105.69,276.69,136.08,240.4,653.17,Single-ply,SBD,M
Boys,109.77,6,Tyler Glasscock,Magnolia West,108.59,240.4,147.42,251.74,639.57,Single-ply,SBD,M
Boys,109.77,7,Justin Latonero,Conroe Oak Ridge,101.88,249.48,154.22,219.99,623.69,Single-ply,SBD,M
Boys,109.77,8,Kenny Furches,Conroe The Woodlands,101.24,251.74,131.54,226.8,610.08,Single-ply,SBD,M
Boys,109.77,9,Dijon Moon,Channelview,100.61,226.8,124.74,238.14,589.67,Single-ply,SBD,M
Boys,109.77,DQ,Devonte Mays,Livingston,109.77,,,,,Single-ply,SBD,M
Boys,109.77,DQ,Gerrod Hilliard,Livingston,109.77,,,,,Single-ply,SBD,M
Boys,109.77,DQ,Curtis Emory,Alvin,107.95,,,,,Single-ply,SBD,M
Boys,124.74,1,Matt Oubre,Dayton,118.84,272.16,183.7,247.21,703.07,Single-ply,SBD,M
Boys,124.74,2,Raymond Madrigal,Freeport Brazosport,121.93,258.55,172.37,224.53,655.44,Single-ply,SBD,M
Boys,124.74,3,Mike Alvair,Freeport Brazosport,110.95,272.16,158.76,222.26,653.17,Single-ply,SBD,M
Boys,124.74,4,Patrick Travis,Livingston,111.22,276.69,176.9,199.58,653.17,Single-ply,SBD,M
Boys,124.74,5,Chris Mangini,Port Neches-Groves,119.84,249.48,149.69,233.6,632.76,Single-ply,SBD,M
Boys,124.74,6,James Marin,Alvin,116.48,244.94,163.29,217.72,625.96,Single-ply,SBD,M
Boys,124.74,7,William Simpson,Houston Madison,123.38,226.8,165.56,226.8,619.15,Single-ply,SBD,M
Boys,124.74,8,Caleb Ethridge,New Caney,110.5,242.67,167.83,204.12,614.62,Single-ply,SBD,M
Boys,124.74,9,Blake Teasdale,Montgomery,118.21,222.26,163.29,217.72,603.28,Single-ply,SBD,M
Boys,124.74,DQ,Andrew Granville,Channelview,118.12,272.16,,,,Single-ply,SBD,M
Boys,124.74+,1,Travis Romero,Manvel,151.68,322.05,174.63,278.96,775.64,Single-ply,SBD,M
Boys,124.74+,2,Tim Jenkins,Dickinson,126.01,317.51,174.63,278.96,771.11,Single-ply,SBD,M
Boys,124.74+,3,Trey Teague,Freeport Brazosport,149.23,294.84,151.95,265.35,712.14,Single-ply,SBD,M
Boys,124.74+,4,Michael Cervera,Conroe Woodlands College Park,133.27,326.59,149.69,233.6,709.87,Single-ply,SBD,M
Boys,124.74+,5,Terran Alves,Houston Cypress Woods,144.15,285.76,197.31,226.8,709.87,Single-ply,SBD,M
Boys,124.74+,6,Nashon Edwards,Beaumont Ozen,158.67,308.44,142.88,244.94,696.26,Single-ply,SBD,M
Boys,124.74+,7,Joe Lloreda,Dickinson,133.72,276.69,172.37,244.94,694,Single-ply,SBD,M
Boys,124.74+,8,Mark Poteat,Conroe The Woodlands,167.01,310.71,145.15,233.6,689.46,Single-ply,SBD,M
Boys,124.74+,9,Bryon Williams,Dickinson,148.87,278.96,145.15,263.08,687.19,Single-ply,SBD,M
Boys,124.74+,10,Dimitri Carpenter,Conroe,135.17,276.69,154.22,251.74,682.66,Single-ply,SBD,M
Boys,124.74+,DQ,Charles Phillips,Houston Madison,125.19,,,,,Single-ply,SBD,M
Boys,124.74+,DQ,Corey Lee,La Porte,127.82,272.16,188.24,,,Single-ply,SBD,M
Boys,124.74+,DQ,Brandon Garza,Clute Brazoswood,137.71,299.37,158.76,,,Single-ply,SBD,M
