Division,WeightClassKg,Place,Name,Team,BodyweightKg,Best3SquatKg,Best3BenchKg,Best3DeadliftKg,TotalKg,Equipment,Event,Sex
Boys,51.71,1,Dylan Elkins,Needville,51.07,156.49,104.33,149.69,410.5,Single-ply,SBD,M
Boys,55.79,2,Cecilio Hernandez,Dickinson,51.8,138.35,79.38,136.08,353.8,Single-ply,SBD,M
Boys,51.71,3,Zach Palmer,Van Vleck,51.53,108.86,54.43,106.59,269.89,Single-ply,SBD,M
Boys,51.71,4,Logan Green,Conroe Oak Ridge,51.07,102.06,49.9,113.4,265.35,Single-ply,SBD,M
Boys,51.71,5,Michael Middaugh,Van Vleck,50.71,90.72,54.43,102.06,247.21,Single-ply,SBD,M
Boys,55.79,DQ,Eric Flores,Katy Mayde Creek,51.94,83.91,,,,Single-ply,SBD,M
Boys,55.79,DQ,Matthew Riddick,Crosby,51.94,,,,,Single-ply,SBD,M
Boys,55.79,1,Marcus Hernandez #1,Victoria West,55.7,174.63,86.18,192.78,453.59,Single-ply,SBD,M
Boys,59.87,2,Jacob Ryder,Needville,56.02,149.69,92.99,165.56,408.23,Single-ply,SBD,M
Boys,55.79,3,Juan Ochoa,Crosby,55.16,120.2,74.84,158.76,353.8,Single-ply,SBD,M
Boys,59.87,4,Shawn Glover,Danbury,55.97,104.33,79.38,124.74,308.44,Single-ply,SBD,M
Boys,59.87,5,Francisco Pineda,Houston Milby,56.02,92.99,70.31,142.88,306.17,Single-ply,SBD,M
Boys,55.79,6,Matt Rice,Conroe Oak Ridge,54.25,104.33,68.04,124.74,297.1,Single-ply,SBD,M
Boys,59.87,7,Marquis Butler,Houston Madison,55.97,83.91,52.16,136.08,272.16,Single-ply,SBD,M
Boys,55.79,8,Maeson Lausch,Danbury,55.25,92.99,63.5,113.4,269.89,Single-ply,SBD,M
Boys,67.13,1,Michael Latapie,Palacios,60.1,172.37,136.08,174.63,483.08,Single-ply,SBD,M
Boys,67.13,2,Alec DeLeon,Dickinson,60.1,170.1,99.79,172.37,442.25,Single-ply,SBD,M
Boys,59.87,3,DeMarco Corner,Manvel,58.69,158.76,95.25,185.97,439.98,Single-ply,SBD,M
Boys,59.87,4,Fidencio Cruz,Dickinson,59.87,158.76,104.33,172.37,435.45,Single-ply,SBD,M
Boys,67.13,5,Isaac Cervantes,Needville,60.1,147.42,79.38,188.24,415.04,Single-ply,SBD,M
Boys,59.87,6,Zach Mutchler,Manvel,58.79,142.88,97.52,145.15,385.55,Single-ply,SBD,M
Boys,59.87,7,Donovan Lee,Katy Mayde Creek,58.6,129.27,79.38,165.56,374.21,Single-ply,SBD,M
Boys,59.87,8,Dylan Billiott,La Marque,59.24,115.67,65.77,136.08,317.51,Single-ply,SBD,M
Boys,59.87,DQ,Christian Diaz,Katy Mayde Creek,58.6,147.42,,,,Single-ply,SBD,M
Boys,59.87,DQ,Julius Voltaire,Conroe Oak Ridge,58.69,124.74,,,,Single-ply,SBD,M
Boys,67.13,1,Jamal Simms,Houston Madison,67.04,215.46,111.13,213.19,539.77,Single-ply,SBD,M
Boys,67.13,2,David Ledbetter,Victoria West,66.59,204.12,129.27,204.12,537.51,Single-ply,SBD,M
Boys,74.84,3,Ritchie Lyttle,New Caney Porter,67.22,195.04,120.2,199.58,514.83,Single-ply,SBD,M
Boys,67.13,4,Calvin Laskey,Katy Mayde Creek,67.13,185.97,115.67,206.38,508.02,Single-ply,SBD,M
Boys,67.13,5,Tyler Marcel,Conroe Oak Ridge,64.32,176.9,120.2,208.65,505.76,Single-ply,SBD,M
Boys,74.84,6,Jerrell Garner,Houston Madison,67.36,197.31,97.52,204.12,498.95,Single-ply,SBD,M
Boys,67.13,7,Samuel Fisher,Bay City,67.13,174.63,106.59,201.85,483.08,Single-ply,SBD,M
Boys,67.13,8,Marcus Crespin,Victoria West,62.41,188.24,97.52,185.97,471.74,Single-ply,SBD,M
Boys,67.13,9,Da'Shaun Smith,Bay City,66.86,181.44,99.79,174.63,455.86,Single-ply,SBD,M
Boys,67.13,10,Sergio Olvera,Needville,64.32,161.03,102.06,183.7,446.79,Single-ply,SBD,M
Boys,67.13,11,Brandon Miladin,Van Vleck,65.77,140.61,95.25,172.37,408.23,Single-ply,SBD,M
Boys,67.13,12,Gerald Johnson,La Marque,63.96,158.76,90.72,154.22,403.7,Single-ply,SBD,M
Boys,67.13,13,Josh Oldag,Sealy,64.23,149.69,106.59,145.15,401.43,Single-ply,SBD,M
Boys,67.13,14,Zachariah Andrade,Danbury,63.32,136.08,74.84,140.61,351.53,Single-ply,SBD,M
Boys,67.13,15,David Glover,Danbury,60.51,122.47,74.84,140.61,337.93,Single-ply,SBD,M
Boys,67.13,16,Hunter Luscombe,Sealy,60.33,120.2,74.84,127.01,322.05,Single-ply,SBD,M
Boys,67.13,17,Morgan Collins,La Marque,65.59,106.59,74.84,127.01,308.44,Single-ply,SBD,M
Boys,67.13,DQ,Hernon Ramirez,Alvin,65.77,133.81,,,,Single-ply,SBD,M
Boys,67.13,DQ,Dean Bagby,Van Vleck,61.42,151.95,102.06,,,Single-ply,SBD,M
Boys,82.1,1,Travis Hill,Pasadena Memorial,75.07,204.12,122.47,226.8,553.38,Single-ply,SBD,M
Boys,74.84,2,Jose Jimenez,Palacios,68.49,197.31,133.81,213.19,544.31,Single-ply,SBD,M
Boys,74.84,3,Thomas Bridges,Dickinson,74.3,201.85,136.08,197.31,535.24,Single-ply,SBD,M
Boys,82.1,4,Gabe Valladares,Van Vleck,74.93,190.51,127.01,192.78,510.29,Single-ply,SBD,M
Boys,74.84,5,Matt Mitchell,Conroe Oak Ridge,73.03,199.58,106.59,199.58,505.76,Single-ply,SBD,M
Boys,74.84,6,Mike Salazar,Manvel,71.94,190.51,113.4,183.7,487.61,Single-ply,SBD,M
Boys,74.84,7,Leonard Owens,Manvel,73.84,174.63,108.86,185.97,469.47,Single-ply,SBD,M
Boys,82.1,8,Colby Calk,Van Vleck,75.07,170.1,106.59,165.56,442.25,Single-ply,SBD,M
Boys,74.84,9,Travis Anderson,Crosby,74.03,158.76,102.06,167.83,428.64,Single-ply,SBD,M
Boys,74.84,10,Corey Holmes,La Marque,70.22,102.06,52.16,102.06,256.28,Single-ply,SBD,M
Boys,74.84,DQ,Brazos Alexander,Alvin,74.21,133.81,92.99,,,Single-ply,SBD,M
Boys,82.1,1,Kyle Leal,Crosby,80.65,226.8,149.69,219.99,596.47,Single-ply,SBD,M
Boys,82.1,2,Darius Thornton,Houston Westbury,77.75,215.46,142.88,217.72,576.06,Single-ply,SBD,M
Boys,82.1,3,Brandon Pitre,Manvel,80.47,204.12,145.15,226.8,576.06,Single-ply,SBD,M
Boys,82.1,4,Oziel Rios,Palacios,80.56,197.31,163.29,204.12,564.72,Single-ply,SBD,M
Boys,82.1,5,Jonathan Voltaire,Conroe Oak Ridge,79.2,179.17,120.2,208.65,508.02,Single-ply,SBD,M
Boys,82.1,6,Noah Webber,Pasadena Memorial,78.11,170.1,104.33,204.12,478.54,Single-ply,SBD,M
Boys,82.1,7,Trey Vaughans,Dickinson,76.75,185.97,117.93,167.83,471.74,Single-ply,SBD,M
Boys,82.1,8,Leland Young,Dickinson,81.92,195.04,92.99,183.7,471.74,Single-ply,SBD,M
Boys,82.1,9,Patrick Scopel,Danbury,81.74,170.1,86.18,170.1,426.38,Single-ply,SBD,M
Boys,82.1,10,Dodi Vasquez,Dickinson,78.65,165.56,97.52,147.42,410.5,Single-ply,SBD,M
Boys,82.1,11,Reggie Papillon,La Marque,77.66,149.69,88.45,142.88,381.02,Single-ply,SBD,M
Boys,82.1,12,Brandon Hicks,Danbury,80.56,142.88,83.91,147.42,374.21,Single-ply,SBD,M
Boys,82.1,13,Anthony Wright,La Marque,76.57,106.59,70.31,183.7,360.61,Single-ply,SBD,M
Boys,82.1,14,Nick Tobar,La Marque,79.92,104.33,83.91,124.74,312.98,Single-ply,SBD,M
Boys,82.1,15,Wyatt Denson,Needville,81.28,104.33,65.77,104.33,274.42,Single-ply,SBD,M
Boys,89.81,1,Val Hernandez,Crosby,89.63,238.14,151.95,251.74,641.83,Single-ply,SBD,M
Boys,89.81,2,George Stephenson,Conroe Oak Ridge,89.36,260.82,124.74,235.87,621.42,Single-ply,SBD,M
Boys,99.79,3,Luis Escobedo,Needville,90.04,222.26,161.03,215.46,598.74,Single-ply,SBD,M
Boys,89.81,4,Kenny Sanchez,Victoria West,88.72,254.01,142.88,192.78,589.67,Single-ply,SBD,M
Boys,89.81,5,Jovito Mendez,Needville,88.63,235.87,129.27,204.12,569.26,Single-ply,SBD,M
Boys,89.81,6,Blake Wright,Crosby,83.01,210.92,108.86,226.8,546.58,Single-ply,SBD,M
Boys,89.81,7,Jadon Morales,Bay City,87.09,208.65,136.08,199.58,544.31,Single-ply,SBD,M
Boys,89.81,8,Tanner Hohman,Alvin,84.37,215.46,115.67,197.31,528.44,Single-ply,SBD,M
Boys,89.81,9,Julien Kyles,Dickinson,84.55,197.31,111.13,183.7,492.15,Single-ply,SBD,M
Boys,89.81,10,Marvin Watson,Van Vleck,87.72,199.58,104.33,188.24,492.15,Single-ply,SBD,M
Boys,89.81,11,Blake Long,Manvel,88,176.9,115.67,199.58,492.15,Single-ply,SBD,M
Boys,89.81,12,Damon Burkett,Manvel,88.36,188.24,113.4,172.37,474,Single-ply,SBD,M
Boys,89.81,13,Mike Chavira,Alvin,83.82,188.24,106.59,172.37,467.2,Single-ply,SBD,M
Boys,89.81,14,Chris Calhoun,Houston Westbury,88.27,174.63,102.06,183.7,460.4,Single-ply,SBD,M
Boys,89.81,15,Louis Hickman,New Caney Porter,88.27,181.44,95.25,158.76,435.45,Single-ply,SBD,M
Boys,89.81,16,Ricky Lerma,Needville,83.64,158.76,90.72,158.76,408.23,Single-ply,SBD,M
Boys,89.81,17,Jake Minter,Pasadena Memorial,89.09,163.29,83.91,158.76,405.97,Single-ply,SBD,M
Boys,89.81,18,Cleaon Jolly,Dickinson,82.74,136.08,92.99,147.42,376.48,Single-ply,SBD,M
Boys,89.81,19,Mario Cortes,Danbury,89.27,142.88,74.84,140.61,358.34,Single-ply,SBD,M
Boys,89.81,DQ,Benji Meche,Crosby,85.09,215.46,142.88,,,Single-ply,SBD,M
Boys,89.81,DQ,Julian Simien,Manvel,87.45,197.31,115.67,,,Single-ply,SBD,M
Boys,89.81,DQ,Caleb Lamberth,Manvel,87.82,,,,,Single-ply,SBD,M
Boys,89.81,DQ,Sterling Brumant,Katy Mayde Creek,87.63,,,,,Single-ply,SBD,M
Boys,99.79,1,Roderick Wiltz,Houston Madison,97.61,290.3,158.76,265.35,714.41,Single-ply,SBD,M
Boys,99.79,2,Chris Sherrill,Bay City,95.71,272.16,158.76,235.87,666.78,Single-ply,SBD,M
Boys,99.79,3,Conner Chumchall,Victoria West,98.7,272.16,133.81,206.38,612.35,Single-ply,SBD,M
Boys,99.79,4,Chase Nix,Crosby,90.63,238.14,142.88,210.92,591.94,Single-ply,SBD,M
Boys,99.79,5,Gerrardo Torres,Houston Madison,91.17,226.8,131.54,226.8,585.13,Single-ply,SBD,M
Boys,99.79,6,Dillon Anderson,Katy Mayde Creek,98.97,226.8,142.88,197.31,566.99,Single-ply,SBD,M
Boys,99.79,7,Jose Aguilar,Pasadena Memorial,98.34,210.92,122.47,215.46,548.85,Single-ply,SBD,M
Boys,99.79,8,Naren Medrano,Manvel,97.61,210.92,124.74,201.85,537.51,Single-ply,SBD,M
Boys,99.79,9,Kelvin Turner,Houston Westbury,99.79,192.78,97.52,226.8,517.1,Single-ply,SBD,M
Boys,99.79,10,Marcus Green,Manvel,92.62,201.85,111.13,188.24,501.22,Single-ply,SBD,M
Boys,99.79,11,Simeon Houston,Houston Westbury,98.79,165.56,106.59,210.92,483.08,Single-ply,SBD,M
Boys,99.79,12,Jorge Oviedo,Pasadena Memorial,94.44,158.76,99.79,199.58,458.13,Single-ply,SBD,M
Boys,99.79,13,Jason Weeden,Pasadena Memorial,94.35,170.1,83.91,181.44,435.45,Single-ply,SBD,M
Boys,99.79,14,Austin Solomon,Danbury,94.53,149.69,99.79,172.37,421.84,Single-ply,SBD,M
Boys,99.79,15,Jared Reedy,Dickinson,99.06,181.44,88.45,147.42,417.3,Single-ply,SBD,M
Boys,99.79,16,Kamron Roswell,La Marque,90.72,151.95,86.18,161.03,399.16,Single-ply,SBD,M
Boys,99.79,17,Stacy Emerson,Needville,94.44,115.67,74.84,124.74,315.25,Single-ply,SBD,M
Boys,99.79,DQ,Kyle Dunk,Needville,93.89,185.97,129.27,,,Single-ply,SBD,M
Boys,109.77,1,Justin Latanero,Conroe Oak Ridge,105.87,258.55,176.9,235.87,671.32,Single-ply,SBD,M
Boys,109.77,2,Tremonte Green,Crosby,108.41,254.01,158.76,249.48,662.24,Single-ply,SBD,M
Boys,109.77,3,Reno Dominguez,Katy Mayde Creek,106.87,294.84,124.74,233.6,653.17,Single-ply,SBD,M
Boys,109.77,4,Charles Flores,Dickinson,102.15,231.33,172.37,226.8,630.49,Single-ply,SBD,M
Boys,124.74,5,Eduardo Moran,Katy Mayde Creek,109.95,242.67,129.27,226.8,598.74,Single-ply,SBD,M
Boys,109.77,6,JR Rodriguez,Bay City,107.05,272.16,124.74,190.51,587.4,Single-ply,SBD,M
Boys,109.77,7,Kaylond North,Dickinson,108.05,231.33,124.74,204.12,560.19,Single-ply,SBD,M
Boys,109.77,8,Chris Dowdy,Dickinson,105.32,226.8,117.93,204.12,548.85,Single-ply,SBD,M
Boys,109.77,9,Alex MacLennan,Bay City,109.77,192.78,124.74,226.8,544.31,Single-ply,SBD,M
Boys,109.77,10,Nick Goza,Needville,100.88,183.7,136.08,222.26,542.04,Single-ply,SBD,M
Boys,109.77,11,Matt Ramirez,Victoria West,100.97,208.65,124.74,192.78,526.17,Single-ply,SBD,M
Boys,109.77,12,Justin Franklin,New Caney Porter,107.95,215.46,136.08,170.1,521.63,Single-ply,SBD,M
Boys,109.77,13,Jacob Clifton,New Caney Porter,105.6,208.65,133.81,158.76,501.22,Single-ply,SBD,M
Boys,109.77,14,Malcolm Pringle,Houston Westbury,101.15,170.1,117.93,208.65,496.68,Single-ply,SBD,M
Boys,109.77,15,Luis Barron,Danbury,108.86,190.51,111.13,192.78,494.42,Single-ply,SBD,M
Boys,109.77,16,Kenneth Edwards,La Marque,103.87,174.63,136.08,167.83,478.54,Single-ply,SBD,M
Boys,109.77,17,Alex Cruz,Pasadena Memorial,107.77,181.44,97.52,192.78,471.74,Single-ply,SBD,M
Boys,109.77,18,Justin Edwards,Conroe Oak Ridge,105.78,163.29,131.54,167.83,462.66,Single-ply,SBD,M
Boys,109.77,19,Juwan Callies,Van Vleck,100.97,179.17,90.72,176.9,446.79,Single-ply,SBD,M
Boys,124.74,1,Chris Shepherd,Alvin,113.4,260.82,142.88,247.21,650.91,Single-ply,SBD,M
Boys,124.74,2,Austin Pratt,Sealy,115.21,219.99,151.95,251.74,623.69,Single-ply,SBD,M
Boys,124.74,3,James Marin,Alvin,122.83,226.8,165.56,226.8,619.15,Single-ply,SBD,M
Boys,124.74,4,Jacoby Callahan,New Caney Porter,113.76,226.8,136.08,226.8,589.67,Single-ply,SBD,M
Boys,124.74,5,Ernesto Reales,Dickinson,122.02,240.4,138.35,208.65,587.4,Single-ply,SBD,M
Boys,124.74,6,Dewan Edmonson,Manvel,117.93,215.46,142.88,204.12,562.45,Single-ply,SBD,M
Boys,124.74,7,Marquez Baker,La Marque,119.48,226.8,113.4,190.51,530.7,Single-ply,SBD,M
Boys,124.74,8,Chance Cumming,Dickinson,121.29,204.12,104.33,217.72,526.17,Single-ply,SBD,M
Boys,124.74,9,Andrew Velasco,Katy Mayde Creek,111.31,208.65,113.4,197.31,519.36,Single-ply,SBD,M
Boys,124.74,DQ,Ismail Hassan,Katy Mayde Creek,117.03,249.48,,,,Single-ply,SBD,M
Boys,124.74,DQ,Oshaun Lewis,Houston Westbury,114.49,195.04,129.27,,,Single-ply,SBD,M
Boys,124.74,DQ,Marlon Jackson,Houston Westbury,124.38,,,,,Single-ply,SBD,M
Boys,124.74,DQ,Grant Narcisse,Crosby,119.57,260.82,,,,Single-ply,SBD,M
Boys,124.74,DQ,Joshua Opiela,Crosby,122.56,272.16,147.42,,,Single-ply,SBD,M
Boys,124.74+,1,Travis Romero,Manvel,163.02,317.51,176.9,283.5,777.91,Single-ply,SBD,M
Boys,124.74+,2,Alonzo Crittendon,Dickinson,138.16,326.59,117.93,229.06,673.58,Single-ply,SBD,M
Boys,124.74+,3,Joshua McKinnies,Katy Mayde Creek,125.92,256.28,151.95,231.33,639.57,Single-ply,SBD,M
Boys,124.74+,4,Chance Harmanson,Dickinson,131.54,258.55,136.08,233.6,628.23,Single-ply,SBD,M
Boys,124.74+,5,Jeremiah Sodia,Victoria West,126.1,272.16,131.54,215.46,619.15,Single-ply,SBD,M
Boys,124.74+,6,Kaylon Cooksey,Manvel,130.18,249.48,140.61,226.8,616.89,Single-ply,SBD,M
Boys,124.74+,7,Onisokien Osaumpke,Manvel,186.43,226.8,161.03,217.72,605.55,Single-ply,SBD,M
Boys,124.74+,8,Darin Slater,Dickinson,149.05,263.08,127.01,204.12,594.21,Single-ply,SBD,M
Boys,124.74+,9,Daniel Sánchez,Victoria West,129.64,272.16,136.08,172.37,580.6,Single-ply,SBD,M
Boys,124.74+,10,Jacob Jaimes,Conroe Oak Ridge,136.17,208.65,136.08,197.31,542.04,Single-ply,SBD,M
Boys,124.74+,11,Anthony Hunter,Manvel,141.61,233.6,106.59,197.31,537.51,Single-ply,SBD,M
Boys,124.74+,12,Clifton Hagen,Houston Madison,125.65,181.44,99.79,147.42,428.64,Single-ply,SBD,M
Boys,124.74+,13,Jamie Russell,Houston Madison,154.22,158.76,90.72,161.03,410.5,Single-ply,SBD,M
