Division,WeightClassKg,Place,Name,Team,BodyweightKg,Best3SquatKg,Best3BenchKg,Best3DeadliftKg,TotalKg,Equipment,Event,Sex
Boys,51.71,1,Trevor Lewing,Livingston,44.09,77.11,38.56,83.91,199.58,Single-ply,SBD,M
Boys,59.87,1,Doug Waters,Diboll,58.51,138.35,72.57,136.08,347,Single-ply,SBD,M
Boys,59.87,2,Josh Veyssi,Livingston,58.88,86.18,63.5,106.59,256.28,Single-ply,SBD,M
Boys,67.13,1,Javante Mack,Lufkin,64.41,158.76,102.06,172.37,433.18,Single-ply,SBD,M
Boys,74.84,2,Ivan Alvarez,Diboll,67.36,138.35,115.67,167.83,421.84,Single-ply,SBD,M
Boys,67.13,3,Draek Scott,Tyler Lee,61.69,142.88,88.45,167.83,399.16,Single-ply,SBD,M
Boys,67.13,4,Bryson Simon,Tyler Lee,64.41,136.08,83.91,172.37,392.36,Single-ply,SBD,M
Boys,74.84,5,Kirby Nielsen,Livingston,67.18,158.76,97.52,136.08,392.36,Single-ply,SBD,M
Boys,67.13,6,Evarado Castillo,Diboll,67.13,127.01,88.45,156.49,371.95,Single-ply,SBD,M
Boys,67.13,7,Cain Kimberlin,Livingston,64.59,113.4,88.45,138.35,340.19,Single-ply,SBD,M
Boys,74.84,1,Kamran McCollum,Diboll,73.48,170.1,111.13,188.24,469.47,Single-ply,SBD,M
Boys,74.84,2,Vashon Richardson,Lufkin,74.84,163.29,102.06,188.24,453.59,Single-ply,SBD,M
Boys,74.84,3,Demarcus Turner,Tyler Lee,68.04,156.49,92.99,199.58,449.06,Single-ply,SBD,M
Boys,74.84,4,Aneus Sutton,Tyler Lee,73.03,158.76,97.52,174.63,430.91,Single-ply,SBD,M
Boys,74.84,5,Hayden Tomlinson,Tyler Lee,73.94,149.69,106.59,165.56,421.84,Single-ply,SBD,M
Boys,74.84,6,Gunnar Quick,Lufkin,74.39,142.88,92.99,170.1,405.97,Single-ply,SBD,M
Boys,74.84,7,Devon Hightower,Lufkin,74.39,131.54,92.99,165.56,390.09,Single-ply,SBD,M
Boys,74.84,8,Chad Reese,Tyler Lee,73.48,131.54,77.11,140.61,349.27,Single-ply,SBD,M
Boys,74.84,9,Sammy Vaughn,Livingston,71.76,113.4,81.65,145.15,340.19,Single-ply,SBD,M
Boys,74.84,10,Jimmy Harris,Livingston,72.3,90.72,61.23,124.74,276.69,Single-ply,SBD,M
Boys,82.1,1,LaQuintas Wallace,Tyler Lee,82.1,174.63,124.74,213.19,512.56,Single-ply,SBD,M
Boys,82.1,2,Blayne Elster,Livingston,81.96,206.38,115.67,188.24,510.29,Single-ply,SBD,M
Boys,82.1,3,Gilbert Sutton,Tyler Lee,82.1,197.31,115.67,195.04,508.02,Single-ply,SBD,M
Boys,82.1,4,Travosky Garrett,Lufkin,78.02,163.29,95.25,219.99,478.54,Single-ply,SBD,M
Boys,82.1,5,Dez Moore,Lufkin,75.75,190.51,95.25,188.24,474,Single-ply,SBD,M
Boys,82.1,6,Devonte Mays,Livingston,80.2,179.17,106.59,188.24,474,Single-ply,SBD,M
Boys,82.1,7,Jared Hoover,Livingston,77.66,185.97,95.25,170.1,451.32,Single-ply,SBD,M
Boys,82.1,8,Chris Bean,Lufkin,76.66,158.76,95.25,181.44,435.45,Single-ply,SBD,M
Boys,82.1,9,Paxton Sandidge,Lufkin,78.93,154.22,113.4,163.29,430.91,Single-ply,SBD,M
Boys,82.1,10,Kevin Moore,Lufkin,77.11,142.88,79.38,188.24,410.5,Single-ply,SBD,M
Boys,82.1,11,Marvin Grey,Tyler Lee,79.38,136.08,90.72,183.7,410.5,Single-ply,SBD,M
Boys,82.1,12,Eric Lewis,Livingston,79.74,151.95,95.25,151.95,399.16,Single-ply,SBD,M
Boys,89.81,1,Khiry Gray,Livingston,88.54,226.8,156.49,201.85,585.13,Single-ply,SBD,M
Boys,89.81,2,Ryan McClain,Livingston,83.28,197.31,127.01,226.8,551.11,Single-ply,SBD,M
Boys,89.81,3,Terrance Taylor,Diboll,88.45,204.12,136.08,192.78,532.97,Single-ply,SBD,M
Boys,89.81,4,Jamarcus Anders,Lufkin,85.73,192.78,117.93,204.12,514.83,Single-ply,SBD,M
Boys,89.81,5,Donovan Reed,Tyler Lee,85.73,181.44,115.67,210.92,508.02,Single-ply,SBD,M
Boys,99.79,6,Rob Villanueva,Diboll,90.04,195.04,99.79,197.31,492.15,Single-ply,SBD,M
Boys,89.81,7,Brysen Bean,Lufkin,86.18,151.95,117.93,208.65,478.54,Single-ply,SBD,M
Boys,89.81,8,Bush Smiley,Lufkin,89.81,181.44,113.4,181.44,476.27,Single-ply,SBD,M
Boys,89.81,9,Demarcus Anders,Lufkin,85.73,181.44,95.25,181.44,458.13,Single-ply,SBD,M
Boys,89.81,10,Nic Jarrett,Tyler Lee,86.18,170.1,111.13,172.37,453.59,Single-ply,SBD,M
Boys,89.81,11,Will Calhoun,Tyler Lee,89.36,163.29,102.06,188.24,453.59,Single-ply,SBD,M
Boys,89.81,12,Jackson Randle,Lufkin,88.9,154.22,104.33,188.24,446.79,Single-ply,SBD,M
Boys,89.81,13,Rogers Givins,Lufkin,83.91,163.29,88.45,181.44,433.18,Single-ply,SBD,M
Boys,89.81,14,Eduardo Miranda,Diboll,89.81,154.22,97.52,158.76,410.5,Single-ply,SBD,M
Boys,89.81,15,Tyler Warren,Diboll,84.37,120.2,81.65,156.49,358.34,Single-ply,SBD,M
Boys,99.79,1,Austin Haynes,Livingston,93.26,208.65,127.01,240.4,576.06,Single-ply,SBD,M
Boys,99.79,2,Austin Galloway,Livingston,94.62,204.12,129.27,199.58,532.97,Single-ply,SBD,M
Boys,99.79,3,JaClarence Rainey,Lufkin,92.53,199.58,127.01,204.12,530.7,Single-ply,SBD,M
Boys,99.79,4,Darrell Kelly-Thomas,Lufkin,96.16,188.24,108.86,222.26,519.36,Single-ply,SBD,M
Boys,99.79,5,Devon Dacus,Tyler Lee,92.99,190.51,108.86,204.12,503.49,Single-ply,SBD,M
Boys,99.79,6,Josh Smith,Lufkin,92.99,165.56,111.13,213.19,489.88,Single-ply,SBD,M
Boys,99.79,7,Dakota Smith,Tyler Lee,98.88,170.1,122.47,190.51,483.08,Single-ply,SBD,M
Boys,99.79,8,Josh Williams,Tyler Lee,96.62,161.03,113.4,204.12,478.54,Single-ply,SBD,M
Boys,99.79,9,James Johnson,Livingston,98.16,136.08,83.91,124.74,344.73,Single-ply,SBD,M
Boys,109.77,1,Bryce Braly,Tyler Lee,102.97,213.19,131.54,204.12,548.85,Single-ply,SBD,M
Boys,109.77,2,Blade Wise-Perry,Lufkin,104.33,195.04,117.93,204.12,517.1,Single-ply,SBD,M
Boys,109.77,3,Carter Halbrooks,Tyler Lee,105.23,181.44,117.93,204.12,503.49,Single-ply,SBD,M
Boys,109.77,4,Conner Groom,Lufkin,106.14,188.24,115.67,185.97,489.88,Single-ply,SBD,M
Boys,109.77,5,Vj Herbert,Tyler Lee,102.51,170.1,106.59,149.69,426.38,Single-ply,SBD,M
Boys,109.77,6,Idong Okon,Tyler Lee,107.95,138.35,92.99,165.56,396.89,Single-ply,SBD,M
Boys,124.74,1,Pat Howard,Tyler Lee,118.84,235.87,154.22,226.8,616.89,Single-ply,SBD,M
Boys,124.74,2,Kalandus Hunt,Lufkin,119.75,238.14,124.74,242.67,605.55,Single-ply,SBD,M
Boys,124.74,3,Alvin Jones,Tyler Lee,119.29,231.33,142.88,208.65,582.87,Single-ply,SBD,M
Boys,124.74,4,Derrick Richards,Lufkin,111.13,181.44,117.93,188.24,487.61,Single-ply,SBD,M
Boys,124.74,5,Chris Collins,Tyler Lee,123.83,190.51,108.86,181.44,480.81,Single-ply,SBD,M
Boys,124.74,6,Judd Mahan,Lufkin,113.4,170.1,129.27,170.1,469.47,Single-ply,SBD,M
Boys,124.74,7,Brandon White,Diboll,113.4,158.76,106.59,147.42,412.77,Single-ply,SBD,M
Boys,124.74+,1,Melvin Paige,Tyler Lee,128.82,254.01,131.54,217.72,603.28,Single-ply,SBD,M
Boys,124.74+,2,Mishobi Johnson,Tyler Lee,125.65,226.8,129.27,226.8,582.87,Single-ply,SBD,M
Boys,124.74+,3,Ben Pope,Lufkin,125.19,215.46,113.4,204.12,532.97,Single-ply,SBD,M
Boys,124.74+,4,Shakobie McCoy,Lufkin,125.19,195.04,124.74,213.19,532.97,Single-ply,SBD,M
Boys,124.74+,5,Taylor Sill,Diboll,136.98,197.31,124.74,167.83,489.88,Single-ply,SBD,M
Boys,124.74+,6,Abel Gonzalez,Livingston,138.62,181.44,102.06,158.76,442.25,Single-ply,SBD,M
Boys,124.74+,7,Jeremy Johnson,Lufkin,127.01,165.56,83.91,188.24,437.72,Single-ply,SBD,M
Boys,124.74+,8,Seth Johnson #4,Diboll,133.81,154.22,83.91,145.15,383.29,Single-ply,SBD,M
